HLT_2e20_loose_nogsf_ion_L12eEM18:
  eventCount: 0
  stepCounts:
    0: 15
    1: 15
    2: 14
    3: 14
    4: 14
  stepFeatures:
    0: 39
    1: 39
    2: 150
    3: 35
    4: 35
    5: 6
HLT_2g15_loose_L12eEM12:
  eventCount: 0
  stepCounts:
    0: 11
    1: 1
    2: 1
  stepFeatures:
    0: 33
    1: 8
    2: 2
    3: 1
HLT_2g15_loose_ion_L12eEM12:
  eventCount: 1
  stepCounts:
    0: 17
    1: 17
    2: 16
    3: 1
  stepFeatures:
    0: 56
    1: 56
    2: 47
    3: 9
HLT_2mu4_L12MU3V:
  eventCount: 3
  stepCounts:
    0: 3
    1: 3
    2: 3
    3: 3
  stepFeatures:
    0: 6
    1: 6
    2: 6
    3: 6
HLT_2mu4_L12MU3V_VjTE50:
  eventCount: 0
HLT_2mu4_bDimu_L12MU3V:
  eventCount: 0
  stepCounts:
    0: 3
    1: 2
    2: 2
    3: 2
  stepFeatures:
    0: 6
    1: 8
    2: 4
    3: 4
    4: 4
HLT_2mu4_l2io_invmDimu_L12MU3V:
  eventCount: 0
  stepCounts:
    0: 3
    1: 3
    2: 3
  stepFeatures:
    0: 6
    1: 8
    2: 6
    3: 6
HLT_e10_lhloose_L1eEM9_VjTE200:
  eventCount: 0
HLT_e10_lhmedium_L1eEM9_VjTE200:
  eventCount: 0
HLT_e10_loose_L1eEM9_VjTE200:
  eventCount: 0
HLT_e10_medium_L1eEM9_VjTE200:
  eventCount: 0
HLT_e15_etcut_ion_L1eEM15:
  eventCount: 17
  stepCounts:
    0: 17
    1: 17
    2: 17
    3: 17
  stepFeatures:
    0: 46
    1: 46
    2: 168
    3: 41
HLT_e15_lhloose_nogsf_ion_L1eEM15:
  eventCount: 6
  stepCounts:
    0: 17
    1: 17
    2: 17
    3: 17
    4: 17
    5: 6
  stepFeatures:
    0: 46
    1: 46
    2: 168
    3: 41
    4: 41
    5: 6
HLT_e15_lhmedium_nogsf_ion_L1eEM15:
  eventCount: 5
  stepCounts:
    0: 17
    1: 17
    2: 17
    3: 17
    4: 17
    5: 5
  stepFeatures:
    0: 46
    1: 46
    2: 168
    3: 41
    4: 41
    5: 5
HLT_e15_loose_nogsf_ion_L1eEM15:
  eventCount: 8
  stepCounts:
    0: 17
    1: 17
    2: 17
    3: 17
    4: 17
    5: 8
  stepFeatures:
    0: 46
    1: 46
    2: 168
    3: 41
    4: 41
    5: 8
HLT_e15_medium_nogsf_ion_L1eEM15:
  eventCount: 7
  stepCounts:
    0: 17
    1: 17
    2: 17
    3: 17
    4: 17
    5: 7
  stepFeatures:
    0: 46
    1: 46
    2: 168
    3: 41
    4: 41
    5: 7
HLT_e20_etcut_ion_L1eEM18:
  eventCount: 17
  stepCounts:
    0: 17
    1: 17
    2: 17
    3: 17
  stepFeatures:
    0: 41
    1: 41
    2: 159
    3: 38
HLT_e20_idperf_loose_nogsf_ion_L1eEM18:
  eventCount: 17
  stepCounts:
    0: 17
    1: 17
    2: 17
    3: 17
  stepFeatures:
    0: 41
    1: 41
    2: 39
    3: 39
HLT_e20_lhloose_nogsf_ion_L1eEM18:
  eventCount: 5
  stepCounts:
    0: 17
    1: 17
    2: 17
    3: 17
    4: 17
    5: 5
  stepFeatures:
    0: 41
    1: 41
    2: 159
    3: 38
    4: 38
    5: 5
HLT_e20_lhmedium_nogsf_ion_L1eEM18:
  eventCount: 4
  stepCounts:
    0: 17
    1: 17
    2: 17
    3: 17
    4: 17
    5: 4
  stepFeatures:
    0: 41
    1: 41
    2: 159
    3: 38
    4: 38
    5: 4
HLT_e20_loose_nogsf_ion_L1eEM18:
  eventCount: 7
  stepCounts:
    0: 17
    1: 17
    2: 17
    3: 17
    4: 17
    5: 7
  stepFeatures:
    0: 41
    1: 41
    2: 159
    3: 38
    4: 38
    5: 7
HLT_e20_loose_nogsf_ion_L1eEM18L:
  eventCount: 5
  stepCounts:
    0: 9
    1: 9
    2: 9
    3: 9
    4: 9
    5: 5
  stepFeatures:
    0: 12
    1: 12
    2: 40
    3: 11
    4: 11
    5: 5
HLT_e20_medium_nogsf_ion_L1eEM18:
  eventCount: 6
  stepCounts:
    0: 17
    1: 17
    2: 17
    3: 17
    4: 17
    5: 6
  stepFeatures:
    0: 41
    1: 41
    2: 159
    3: 38
    4: 38
    5: 6
HLT_e30_etcut_ion_L1eEM26:
  eventCount: 13
  stepCounts:
    0: 14
    1: 14
    2: 14
    3: 13
  stepFeatures:
    0: 27
    1: 27
    2: 118
    3: 23
HLT_e50_etcut_ion_L1eEM26:
  eventCount: 8
  stepCounts:
    0: 9
    1: 9
    2: 9
    3: 8
  stepFeatures:
    0: 15
    1: 15
    2: 69
    3: 11
HLT_g10_loose_L1eEM9_VjTE200:
  eventCount: 0
  stepCounts:
    0: 1
  stepFeatures:
    0: 2
HLT_g10_medium_L1eEM9_VjTE200:
  eventCount: 0
  stepCounts:
    0: 1
  stepFeatures:
    0: 2
HLT_g13_etcut_ion_L1eEM12:
  eventCount: 17
  stepCounts:
    0: 19
    1: 19
    2: 17
  stepFeatures:
    0: 59
    1: 59
    2: 50
HLT_g15_etcut_ion_L1eEM15:
  eventCount: 17
  stepCounts:
    0: 17
    1: 17
    2: 17
  stepFeatures:
    0: 46
    1: 46
    2: 45
HLT_g15_loose_ion_L1eEM12:
  eventCount: 8
  stepCounts:
    0: 19
    1: 19
    2: 17
    3: 8
  stepFeatures:
    0: 58
    1: 58
    2: 47
    3: 9
HLT_g15_loose_ion_L1eEM15:
  eventCount: 8
  stepCounts:
    0: 17
    1: 17
    2: 17
    3: 8
  stepFeatures:
    0: 46
    1: 46
    2: 45
    3: 9
HLT_g18_etcut_L1eEM12:
  eventCount: 17
  stepCounts:
    0: 17
    1: 17
    2: 17
  stepFeatures:
    0: 49
    1: 49
    2: 43
HLT_g18_etcut_ion_L1eEM12:
  eventCount: 17
  stepCounts:
    0: 17
    1: 17
    2: 17
  stepFeatures:
    0: 49
    1: 49
    2: 43
HLT_g18_etcut_ion_L1eEM15:
  eventCount: 17
  stepCounts:
    0: 17
    1: 17
    2: 17
  stepFeatures:
    0: 45
    1: 45
    2: 41
HLT_g20_etcut_ion_L1eEM15:
  eventCount: 17
  stepCounts:
    0: 17
    1: 17
    2: 17
  stepFeatures:
    0: 43
    1: 43
    2: 38
HLT_g20_loose_L1eEM15:
  eventCount: 6
  stepCounts:
    0: 17
    1: 10
    2: 10
    3: 6
  stepFeatures:
    0: 32
    1: 13
    2: 12
    3: 6
HLT_g20_loose_ion_L1eEM15:
  eventCount: 8
  stepCounts:
    0: 17
    1: 17
    2: 17
    3: 8
  stepFeatures:
    0: 43
    1: 43
    2: 38
    3: 8
HLT_g20_loose_ion_L1eEM18:
  eventCount: 8
  stepCounts:
    0: 17
    1: 17
    2: 17
    3: 8
  stepFeatures:
    0: 41
    1: 41
    2: 37
    3: 8
HLT_g28_etcut_ion_L1eEM18:
  eventCount: 13
  stepCounts:
    0: 14
    1: 14
    2: 13
  stepFeatures:
    0: 31
    1: 31
    2: 24
HLT_g30_loose_ion_L1eEM18:
  eventCount: 6
  stepCounts:
    0: 14
    1: 14
    2: 13
    3: 6
  stepFeatures:
    0: 31
    1: 31
    2: 22
    3: 6
HLT_g50_loose_ion_L1eEM26:
  eventCount: 4
  stepCounts:
    0: 9
    1: 9
    2: 8
    3: 4
  stepFeatures:
    0: 15
    1: 15
    2: 11
    3: 4
HLT_hi_uccTh1_L1jTE8300:
  eventCount: 0
HLT_hi_uccTh2_L1jTE10000:
  eventCount: 0
HLT_hi_uccTh2_L1jTE12000:
  eventCount: 0
HLT_hi_uccTh2_L1jTE9000:
  eventCount: 0
HLT_hi_uccTh3_L1jTE10000:
  eventCount: 0
HLT_hi_uccTh3_L1jTE12000:
  eventCount: 0
HLT_j0_MULT0mult11XX10ptXX0eta490_j10_pf_jes_ftf_L1TRT_VjTE200:
  eventCount: 0
HLT_j0_MULT0mult11XX10ptXX0eta490_j10_pf_jes_ftf_L1TRT_ZDC_XOR_VjTE200:
  eventCount: 0
HLT_j0_MULT0mult11XX10ptXX0eta490_j10_pf_jes_ftf_L1eEM1_TRT_ZDC_XOR_VjTE200:
  eventCount: 0
HLT_j0_MULT0mult11XX10ptXX0eta490_j10_pf_jes_ftf_L1eTAU1_TRT_ZDC_XOR_VjTE200:
  eventCount: 0
HLT_j0_MULT0mult11XX10ptXX0eta490_j10_pf_jes_ftf_L1jTAU1_TRT_ZDC_XOR_VjTE200:
  eventCount: 0
HLT_j0_MULT0mult11XX10ptXX0eta490_j10a_pf_jes_ftf_L11ZDC_NZDC_gTE5_VjTE200:
  eventCount: 0
HLT_j0_MULT0mult11XX10ptXX0eta490_j10a_pf_jes_ftf_L11ZDC_NZDC_jJ10_VjTE200:
  eventCount: 0
HLT_j0_MULT0mult11XX10ptXX0eta490_j10a_pf_jes_ftf_L11ZDC_NZDC_jJ5_VjTE200:
  eventCount: 0
HLT_j0_MULT0mult11XX10ptXX0eta490_j10a_pf_jes_ftf_L11ZDC_NZDC_jTE5_VjTE200:
  eventCount: 0
HLT_j0_MULT0mult11XX10ptXX0eta490_j10a_pf_jes_ftf_L12jJ10p30ETA49_VjTE200:
  eventCount: 0
HLT_j0_MULT0mult11XX10ptXX0eta490_j10a_pf_jes_ftf_L12jJ5_TRT_VjTE200:
  eventCount: 0
HLT_j0_MULT0mult11XX10ptXX0eta490_j10a_pf_jes_ftf_L12jJ5_VjTE200:
  eventCount: 3
  stepCounts:
    0: 3
    1: 3
  stepFeatures:
    0: 6
    1: 28
HLT_j0_MULT0mult11XX10ptXX0eta490_j10a_pf_jes_ftf_L12jJ5p30ETA49_VjTE200:
  eventCount: 0
HLT_j0_MULT0mult11XX10ptXX0eta490_j10a_pf_jes_ftf_L15ZDC_A_5ZDC_C_gTE5_VjTE200:
  eventCount: 0
HLT_j0_MULT0mult11XX10ptXX0eta490_j10a_pf_jes_ftf_L15ZDC_A_5ZDC_C_jTE5_VjTE200:
  eventCount: 0
HLT_j0_MULT0mult11XX10ptXX0eta490_j10a_pf_jes_ftf_L1TRT_VZDC_A_VZDC_C_jTE5_VjTE200:
  eventCount: 0
HLT_j0_MULT0mult11XX10ptXX0eta490_j10a_pf_jes_ftf_L1VZDC_A_VZDC_C_VjTE200:
  eventCount: 3
  stepCounts:
    0: 3
    1: 3
  stepFeatures:
    0: 6
    1: 28
HLT_j0_MULT0mult11XX10ptXX0eta490_j10a_pf_jes_ftf_L1VZDC_A_VZDC_C_gTE5_VjTE200:
  eventCount: 3
  stepCounts:
    0: 3
    1: 3
  stepFeatures:
    0: 6
    1: 28
HLT_j0_MULT0mult11XX10ptXX0eta490_j10a_pf_jes_ftf_L1VZDC_A_VZDC_C_gTE5_VjTE200_UNPAIRED_ISO:
  eventCount: 0
HLT_j0_MULT0mult11XX10ptXX0eta490_j10a_pf_jes_ftf_L1VZDC_A_VZDC_C_jJ10_VjTE200:
  eventCount: 3
  stepCounts:
    0: 3
    1: 3
  stepFeatures:
    0: 6
    1: 28
HLT_j0_MULT0mult11XX10ptXX0eta490_j10a_pf_jes_ftf_L1VZDC_A_VZDC_C_jJ5_VjTE200:
  eventCount: 3
  stepCounts:
    0: 3
    1: 3
  stepFeatures:
    0: 6
    1: 28
HLT_j0_MULT0mult11XX10ptXX0eta490_j10a_pf_jes_ftf_L1VZDC_A_VZDC_C_jTE5_VjTE200:
  eventCount: 3
  stepCounts:
    0: 3
    1: 3
  stepFeatures:
    0: 6
    1: 28
HLT_j0_MULT0mult11XX10ptXX0eta490_j10a_pf_jes_ftf_L1VZDC_A_VZDC_C_jTE5_VjTE200_UNPAIRED_ISO:
  eventCount: 0
HLT_j0_MULT0mult11XX10ptXX0eta490_j10a_pf_jes_ftf_L1ZDC_XOR_VjTE200:
  eventCount: 0
HLT_j0_MULT0mult11XX10ptXX0eta490_j10a_pf_jes_ftf_L1ZDC_XOR_gTE5_VjTE200:
  eventCount: 0
HLT_j0_MULT0mult11XX10ptXX0eta490_j10a_pf_jes_ftf_L1ZDC_XOR_gTE5_VjTE200_UNPAIRED_ISO:
  eventCount: 0
HLT_j0_MULT0mult11XX10ptXX0eta490_j10a_pf_jes_ftf_L1ZDC_XOR_jJ10_VjTE200:
  eventCount: 0
HLT_j0_MULT0mult11XX10ptXX0eta490_j10a_pf_jes_ftf_L1ZDC_XOR_jJ5_VjTE200:
  eventCount: 0
HLT_j0_MULT0mult11XX10ptXX0eta490_j10a_pf_jes_ftf_L1ZDC_XOR_jTE5_VjTE200:
  eventCount: 0
HLT_j0_MULT0mult11XX10ptXX0eta490_j10a_pf_jes_ftf_L1ZDC_XOR_jTE5_VjTE200_UNPAIRED_ISO:
  eventCount: 0
HLT_j0_MULT0mult11XX10ptXX0eta490_j10a_pf_jes_ftf_L1eTAU1_jJ5_TRT_VjTE200:
  eventCount: 0
HLT_j0_MULT0mult11XX10ptXX0eta490_j10a_pf_jes_ftf_L1eTAU1_jJ5_VjTE200:
  eventCount: 3
  stepCounts:
    0: 3
    1: 3
  stepFeatures:
    0: 6
    1: 28
HLT_j0_MULT0mult11XX10ptXX0eta490_j10a_pf_jes_ftf_L1gTE5_VjTE200:
  eventCount: 3
  stepCounts:
    0: 3
    1: 3
  stepFeatures:
    0: 6
    1: 28
HLT_j0_MULT0mult11XX10ptXX0eta490_j10a_pf_jes_ftf_L1jJ10p30ETA49_VjTE200:
  eventCount: 0
HLT_j0_MULT0mult11XX10ptXX0eta490_j10a_pf_jes_ftf_L1jJ5_TRT_VjTE200:
  eventCount: 0
HLT_j0_MULT0mult11XX10ptXX0eta490_j10a_pf_jes_ftf_L1jJ5p30ETA49_VjTE200:
  eventCount: 1
  stepCounts:
    0: 1
    1: 1
  stepFeatures:
    0: 2
    1: 12
HLT_j0_MULT0mult11XX10ptXX0eta490_j10a_pf_jes_ftf_L1jTE5_VjTE200:
  eventCount: 3
  stepCounts:
    0: 3
    1: 3
  stepFeatures:
    0: 6
    1: 28
HLT_j0_MULT0mult11XX15ptXX0eta490_j15a_pf_jes_ftf_L11ZDC_NZDC_gTE5_VjTE200:
  eventCount: 0
HLT_j0_MULT0mult11XX15ptXX0eta490_j15a_pf_jes_ftf_L11ZDC_NZDC_jJ10_VjTE200:
  eventCount: 0
HLT_j0_MULT0mult11XX15ptXX0eta490_j15a_pf_jes_ftf_L11ZDC_NZDC_jJ5_VjTE200:
  eventCount: 0
HLT_j0_MULT0mult11XX15ptXX0eta490_j15a_pf_jes_ftf_L11ZDC_NZDC_jTE10_VjTE200:
  eventCount: 0
HLT_j0_MULT0mult11XX15ptXX0eta490_j15a_pf_jes_ftf_L11ZDC_NZDC_jTE5_VjTE200:
  eventCount: 0
HLT_j0_MULT0mult11XX15ptXX0eta490_j15a_pf_jes_ftf_L15ZDC_A_5ZDC_C_gTE5_VjTE200:
  eventCount: 0
HLT_j0_MULT0mult11XX15ptXX0eta490_j15a_pf_jes_ftf_L15ZDC_A_5ZDC_C_jTE5_VjTE200:
  eventCount: 0
HLT_j0_MULT0mult11XX15ptXX0eta490_j15a_pf_jes_ftf_L1TRT_VZDC_A_VZDC_C_jTE5_VjTE200:
  eventCount: 0
HLT_j0_MULT0mult11XX15ptXX0eta490_j15a_pf_jes_ftf_L1VZDC_A_VZDC_C_gTE5_VjTE200:
  eventCount: 3
  stepCounts:
    0: 3
    1: 3
  stepFeatures:
    0: 6
    1: 24
HLT_j0_MULT0mult11XX15ptXX0eta490_j15a_pf_jes_ftf_L1VZDC_A_VZDC_C_gTE5_VjTE200_UNPAIRED_ISO:
  eventCount: 0
HLT_j0_MULT0mult11XX15ptXX0eta490_j15a_pf_jes_ftf_L1VZDC_A_VZDC_C_jJ10_VjTE200:
  eventCount: 3
  stepCounts:
    0: 3
    1: 3
  stepFeatures:
    0: 6
    1: 24
HLT_j0_MULT0mult11XX15ptXX0eta490_j15a_pf_jes_ftf_L1VZDC_A_VZDC_C_jJ5_VjTE200:
  eventCount: 3
  stepCounts:
    0: 3
    1: 3
  stepFeatures:
    0: 6
    1: 24
HLT_j0_MULT0mult11XX15ptXX0eta490_j15a_pf_jes_ftf_L1VZDC_A_VZDC_C_jTE10_VjTE200:
  eventCount: 3
  stepCounts:
    0: 3
    1: 3
  stepFeatures:
    0: 6
    1: 24
HLT_j0_MULT0mult11XX15ptXX0eta490_j15a_pf_jes_ftf_L1VZDC_A_VZDC_C_jTE5_VjTE200:
  eventCount: 3
  stepCounts:
    0: 3
    1: 3
  stepFeatures:
    0: 6
    1: 24
HLT_j0_MULT0mult11XX15ptXX0eta490_j15a_pf_jes_ftf_L1VZDC_A_VZDC_C_jTE5_VjTE200_UNPAIRED_ISO:
  eventCount: 0
HLT_j0_MULT0mult11XX15ptXX0eta490_j15a_pf_jes_ftf_L1ZDC_XOR_gTE5_VjTE200:
  eventCount: 0
HLT_j0_MULT0mult11XX15ptXX0eta490_j15a_pf_jes_ftf_L1ZDC_XOR_gTE5_VjTE200_UNPAIRED_ISO:
  eventCount: 0
HLT_j0_MULT0mult11XX15ptXX0eta490_j15a_pf_jes_ftf_L1ZDC_XOR_jJ10_VjTE200:
  eventCount: 0
HLT_j0_MULT0mult11XX15ptXX0eta490_j15a_pf_jes_ftf_L1ZDC_XOR_jJ5_VjTE200:
  eventCount: 0
HLT_j0_MULT0mult11XX15ptXX0eta490_j15a_pf_jes_ftf_L1ZDC_XOR_jTE10_VjTE200:
  eventCount: 0
HLT_j0_MULT0mult11XX15ptXX0eta490_j15a_pf_jes_ftf_L1ZDC_XOR_jTE5_VjTE200:
  eventCount: 0
HLT_j0_MULT0mult11XX15ptXX0eta490_j15a_pf_jes_ftf_L1ZDC_XOR_jTE5_VjTE200_UNPAIRED_ISO:
  eventCount: 0
HLT_j0_MULT0mult11XX15ptXX0eta490_j15a_pf_jes_ftf_L1jTE5_VjTE200:
  eventCount: 3
  stepCounts:
    0: 3
    1: 3
  stepFeatures:
    0: 6
    1: 24
HLT_j0_MULT0mult11XX15ptXX0eta490_j20a_pf_jes_ftf_L11ZDC_NZDC_gTE5_VjTE200:
  eventCount: 0
HLT_j0_MULT0mult11XX15ptXX0eta490_j20a_pf_jes_ftf_L11ZDC_NZDC_jJ10_VjTE200:
  eventCount: 0
HLT_j0_MULT0mult11XX15ptXX0eta490_j20a_pf_jes_ftf_L11ZDC_NZDC_jJ5_VjTE200:
  eventCount: 0
HLT_j0_MULT0mult11XX15ptXX0eta490_j20a_pf_jes_ftf_L11ZDC_NZDC_jTE10_VjTE200:
  eventCount: 0
HLT_j0_MULT0mult11XX15ptXX0eta490_j20a_pf_jes_ftf_L11ZDC_NZDC_jTE5_VjTE200:
  eventCount: 0
HLT_j0_MULT0mult11XX15ptXX0eta490_j20a_pf_jes_ftf_L15ZDC_A_5ZDC_C_gTE5_VjTE200:
  eventCount: 0
HLT_j0_MULT0mult11XX15ptXX0eta490_j20a_pf_jes_ftf_L15ZDC_A_5ZDC_C_jTE5_VjTE200:
  eventCount: 0
HLT_j0_MULT0mult11XX15ptXX0eta490_j20a_pf_jes_ftf_L1VZDC_A_VZDC_C_gTE5_VjTE200:
  eventCount: 3
  stepCounts:
    0: 3
    1: 3
  stepFeatures:
    0: 6
    1: 23
HLT_j0_MULT0mult11XX15ptXX0eta490_j20a_pf_jes_ftf_L1VZDC_A_VZDC_C_jJ10_VjTE200:
  eventCount: 3
  stepCounts:
    0: 3
    1: 3
  stepFeatures:
    0: 6
    1: 23
HLT_j0_MULT0mult11XX15ptXX0eta490_j20a_pf_jes_ftf_L1VZDC_A_VZDC_C_jJ5_VjTE200:
  eventCount: 3
  stepCounts:
    0: 3
    1: 3
  stepFeatures:
    0: 6
    1: 23
HLT_j0_MULT0mult11XX15ptXX0eta490_j20a_pf_jes_ftf_L1VZDC_A_VZDC_C_jTE10_VjTE200:
  eventCount: 3
  stepCounts:
    0: 3
    1: 3
  stepFeatures:
    0: 6
    1: 23
HLT_j0_MULT0mult11XX15ptXX0eta490_j20a_pf_jes_ftf_L1VZDC_A_VZDC_C_jTE5_VjTE200:
  eventCount: 3
  stepCounts:
    0: 3
    1: 3
  stepFeatures:
    0: 6
    1: 23
HLT_j0_MULT0mult11XX15ptXX0eta490_j20a_pf_jes_ftf_L1ZDC_XOR_gTE5_VjTE200:
  eventCount: 0
HLT_j0_MULT0mult11XX15ptXX0eta490_j20a_pf_jes_ftf_L1ZDC_XOR_jJ10_VjTE200:
  eventCount: 0
HLT_j0_MULT0mult11XX15ptXX0eta490_j20a_pf_jes_ftf_L1ZDC_XOR_jJ5_VjTE200:
  eventCount: 0
HLT_j0_MULT0mult11XX15ptXX0eta490_j20a_pf_jes_ftf_L1ZDC_XOR_jTE10_VjTE200:
  eventCount: 0
HLT_j0_MULT0mult11XX15ptXX0eta490_j20a_pf_jes_ftf_L1ZDC_XOR_jTE5_VjTE200:
  eventCount: 0
HLT_j0_MULT0mult11XX15ptXX0eta490_j20a_pf_jes_ftf_L1jTE5_VjTE200:
  eventCount: 3
  stepCounts:
    0: 3
    1: 3
  stepFeatures:
    0: 6
    1: 23
HLT_j0_MULT0mult11XX15ptXX0eta490_j30a_pf_jes_ftf_L11ZDC_NZDC_gTE5_VjTE200:
  eventCount: 0
HLT_j0_MULT0mult11XX15ptXX0eta490_j30a_pf_jes_ftf_L11ZDC_NZDC_jTE10_VjTE200:
  eventCount: 0
HLT_j0_MULT0mult11XX15ptXX0eta490_j30a_pf_jes_ftf_L11ZDC_NZDC_jTE5_VjTE200:
  eventCount: 0
HLT_j0_MULT0mult11XX15ptXX0eta490_j30a_pf_jes_ftf_L15ZDC_A_5ZDC_C_gTE5_VjTE200:
  eventCount: 0
HLT_j0_MULT0mult11XX15ptXX0eta490_j30a_pf_jes_ftf_L15ZDC_A_5ZDC_C_jTE5_VjTE200:
  eventCount: 0
HLT_j0_MULT0mult11XX15ptXX0eta490_j30a_pf_jes_ftf_L1VZDC_A_VZDC_C_gTE5_VjTE200:
  eventCount: 3
  stepCounts:
    0: 3
    1: 3
  stepFeatures:
    0: 6
    1: 20
HLT_j0_MULT0mult11XX15ptXX0eta490_j30a_pf_jes_ftf_L1VZDC_A_VZDC_C_jTE10_VjTE200:
  eventCount: 3
  stepCounts:
    0: 3
    1: 3
  stepFeatures:
    0: 6
    1: 20
HLT_j0_MULT0mult11XX15ptXX0eta490_j30a_pf_jes_ftf_L1VZDC_A_VZDC_C_jTE5_VjTE200:
  eventCount: 3
  stepCounts:
    0: 3
    1: 3
  stepFeatures:
    0: 6
    1: 20
HLT_j0_MULT0mult11XX15ptXX0eta490_j30a_pf_jes_ftf_L1ZDC_XOR_gTE5_VjTE200:
  eventCount: 0
HLT_j0_MULT0mult11XX15ptXX0eta490_j30a_pf_jes_ftf_L1ZDC_XOR_jTE10_VjTE200:
  eventCount: 0
HLT_j0_MULT0mult11XX15ptXX0eta490_j30a_pf_jes_ftf_L1ZDC_XOR_jTE5_VjTE200:
  eventCount: 0
HLT_j0_MULT0mult11XX15ptXX0eta490_j30a_pf_jes_ftf_L1jTE5_VjTE200:
  eventCount: 3
  stepCounts:
    0: 3
    1: 3
  stepFeatures:
    0: 6
    1: 20
HLT_j0_MULT0mult11XX15ptXX0eta490_j40a_pf_jes_ftf_L11ZDC_NZDC_gTE5_VjTE200:
  eventCount: 0
HLT_j0_MULT0mult11XX15ptXX0eta490_j40a_pf_jes_ftf_L11ZDC_NZDC_jTE10_VjTE200:
  eventCount: 0
HLT_j0_MULT0mult11XX15ptXX0eta490_j40a_pf_jes_ftf_L11ZDC_NZDC_jTE5_VjTE200:
  eventCount: 0
HLT_j0_MULT0mult11XX15ptXX0eta490_j40a_pf_jes_ftf_L15ZDC_A_5ZDC_C_gTE5_VjTE200:
  eventCount: 0
HLT_j0_MULT0mult11XX15ptXX0eta490_j40a_pf_jes_ftf_L15ZDC_A_5ZDC_C_jTE5_VjTE200:
  eventCount: 0
HLT_j0_MULT0mult11XX15ptXX0eta490_j40a_pf_jes_ftf_L1VZDC_A_VZDC_C_gTE5_VjTE200:
  eventCount: 3
  stepCounts:
    0: 3
    1: 3
  stepFeatures:
    0: 6
    1: 19
HLT_j0_MULT0mult11XX15ptXX0eta490_j40a_pf_jes_ftf_L1VZDC_A_VZDC_C_jTE10_VjTE200:
  eventCount: 3
  stepCounts:
    0: 3
    1: 3
  stepFeatures:
    0: 6
    1: 19
HLT_j0_MULT0mult11XX15ptXX0eta490_j40a_pf_jes_ftf_L1VZDC_A_VZDC_C_jTE5_VjTE200:
  eventCount: 3
  stepCounts:
    0: 3
    1: 3
  stepFeatures:
    0: 6
    1: 19
HLT_j0_MULT0mult11XX15ptXX0eta490_j40a_pf_jes_ftf_L1ZDC_XOR_gTE5_VjTE200:
  eventCount: 0
HLT_j0_MULT0mult11XX15ptXX0eta490_j40a_pf_jes_ftf_L1ZDC_XOR_jTE10_VjTE200:
  eventCount: 0
HLT_j0_MULT0mult11XX15ptXX0eta490_j40a_pf_jes_ftf_L1ZDC_XOR_jTE5_VjTE200:
  eventCount: 0
HLT_j0_MULT0mult11XX15ptXX0eta490_j40a_pf_jes_ftf_L1jTE5_VjTE200:
  eventCount: 3
  stepCounts:
    0: 3
    1: 3
  stepFeatures:
    0: 6
    1: 19
HLT_j100_ion_L1jJ60:
  eventCount: 8
  stepCounts:
    0: 8
  stepFeatures:
    0: 15
HLT_j10a_pf_jes_ftf_L1jTE5_VjTE200:
  eventCount: 3
  stepCounts:
    0: 3
    1: 3
  stepFeatures:
    0: 3
    1: 14
HLT_j120_ion_L1jJ60:
  eventCount: 6
  stepCounts:
    0: 6
  stepFeatures:
    0: 9
HLT_j150_ion_L1jJ90:
  eventCount: 5
  stepCounts:
    0: 5
  stepFeatures:
    0: 7
HLT_j15a_pf_jes_ftf_L1jTE5_VjTE200:
  eventCount: 3
  stepCounts:
    0: 3
    1: 3
  stepFeatures:
    0: 3
    1: 12
HLT_j200_ion_L1jJ90:
  eventCount: 2
  stepCounts:
    0: 2
  stepFeatures:
    0: 4
HLT_j20a_pf_jes_ftf_L1jTE5_VjTE200:
  eventCount: 3
  stepCounts:
    0: 3
    1: 3
  stepFeatures:
    0: 3
    1: 11
HLT_j30a_pf_jes_ftf_L1jTE5_VjTE200:
  eventCount: 3
  stepCounts:
    0: 3
    1: 3
  stepFeatures:
    0: 3
    1: 8
HLT_j30f_ion_L1jTE20:
  eventCount: 1
  stepCounts:
    0: 1
  stepFeatures:
    0: 1
HLT_j40_a2_ion_L1ZDC_HELT15_jTE4000:
  eventCount: 0
HLT_j40_a2_ion_L1ZDC_HELT20_jTE4000:
  eventCount: 0
HLT_j40_a2_ion_L1ZDC_HELT25_jTE4000:
  eventCount: 0
HLT_j40_a2_ion_hi_uccTh2_L1jTE9000:
  eventCount: 0
HLT_j40_a2_ion_hi_uccTh3_L1jTE10000:
  eventCount: 0
HLT_j40_ion_L1RD0_FILLED:
  eventCount: 20
  stepCounts:
    0: 20
  stepFeatures:
    0: 65
HLT_j40a_pf_jes_ftf_L1jTE5_VjTE200:
  eventCount: 3
  stepCounts:
    0: 3
    1: 3
  stepFeatures:
    0: 3
    1: 7
HLT_j50_a2_ion_L1ZDC_HELT15_jTE4000:
  eventCount: 0
HLT_j50_a2_ion_L1ZDC_HELT20_jTE4000:
  eventCount: 0
HLT_j50_a2_ion_L1ZDC_HELT25_jTE4000:
  eventCount: 0
HLT_j50_a2_ion_hi_uccTh2_L1jTE9000:
  eventCount: 0
HLT_j50_a2_ion_hi_uccTh3_L1jTE10000:
  eventCount: 0
HLT_j50_ion_L1RD0_FILLED:
  eventCount: 19
  stepCounts:
    0: 19
  stepFeatures:
    0: 51
HLT_j50_ion_L1jTE50:
  eventCount: 19
  stepCounts:
    0: 19
  stepFeatures:
    0: 51
HLT_j50f_ion_L1jJ40p30ETA49:
  eventCount: 0
HLT_j50f_ion_L1jTE50:
  eventCount: 0
HLT_j60_a2_ion_L1ZDC_HELT15_jTE4000:
  eventCount: 0
HLT_j60_a2_ion_L1ZDC_HELT20_jTE4000:
  eventCount: 0
HLT_j60_a2_ion_L1ZDC_HELT25_jTE4000:
  eventCount: 0
HLT_j60_a2_ion_hi_uccTh2_L1jTE9000:
  eventCount: 0
HLT_j60_a2_ion_hi_uccTh3_L1jTE10000:
  eventCount: 0
HLT_j60_ion_L1jJ40:
  eventCount: 19
  stepCounts:
    0: 19
  stepFeatures:
    0: 42
HLT_j60_ion_L1jTE50:
  eventCount: 19
  stepCounts:
    0: 19
  stepFeatures:
    0: 42
HLT_j60f_ion_L1jJ40p30ETA49:
  eventCount: 0
HLT_j70f_ion_L1jJ60p30ETA49:
  eventCount: 0
HLT_j75_ion_L1jJ50:
  eventCount: 15
  stepCounts:
    0: 15
  stepFeatures:
    0: 29
HLT_j75_ion_L1jJ60:
  eventCount: 14
  stepCounts:
    0: 14
  stepFeatures:
    0: 28
HLT_j80f_ion_L1jJ60p30ETA49:
  eventCount: 0
HLT_j85_ion_L1jJ50:
  eventCount: 11
  stepCounts:
    0: 11
  stepFeatures:
    0: 21
HLT_j85_ion_L1jJ60:
  eventCount: 11
  stepCounts:
    0: 11
  stepFeatures:
    0: 21
HLT_j90f_ion_L1jJ90p30ETA49:
  eventCount: 0
HLT_mb_excl_1trk5_pt0p5_L1TRT_VjTE20:
  eventCount: 0
HLT_mb_excl_1trk5_pt0p5_hi_FgapAC5_L1TRT_VjTE20:
  eventCount: 0
HLT_mb_excl_1trk5_pt1_L12eTAU1_VjTE200:
  eventCount: 0
HLT_mb_excl_1trk5_pt1_L1TRT_VjTE20:
  eventCount: 0
HLT_mb_excl_1trk5_pt1_L1eEM1_TRT_VZDC_A_VZDC_C_VjTE100:
  eventCount: 0
HLT_mb_excl_1trk5_pt1_L1eTAU1_TRT_VZDC_A_VZDC_C_VjTE100:
  eventCount: 0
HLT_mb_excl_1trk5_pt1_L1eTAU1_TRT_VjTE200:
  eventCount: 0
HLT_mb_excl_1trk5_pt1_L1eTAU1_jTE4_VjTE200:
  eventCount: 0
HLT_mb_excl_1trk5_pt1_hi_FgapAC5_L11ZDC_A_1ZDC_C_VjTE200:
  eventCount: 0
HLT_mb_excl_1trk5_pt1_hi_FgapAC5_L12eEM1_VjTE200:
  eventCount: 0
  stepCounts:
    0: 1
  stepFeatures:
    0: 1
HLT_mb_excl_1trk5_pt1_hi_FgapAC5_L12eEM1_VjTE200_GAP_AANDC:
  eventCount: 0
  stepCounts:
    0: 1
  stepFeatures:
    0: 1
HLT_mb_excl_1trk5_pt1_hi_FgapAC5_L12eEM2_VjTE200:
  eventCount: 0
  stepCounts:
    0: 1
  stepFeatures:
    0: 1
HLT_mb_excl_1trk5_pt1_hi_FgapAC5_L12eTAU1_VjTE200:
  eventCount: 0
  stepCounts:
    0: 1
  stepFeatures:
    0: 1
HLT_mb_excl_1trk5_pt1_hi_FgapAC5_L1DPHI-2eEM1_VjTE200:
  eventCount: 0
  stepCounts:
    0: 1
  stepFeatures:
    0: 1
HLT_mb_excl_1trk5_pt1_hi_FgapAC5_L1DPHI-2eEM1_VjTE200_GAP_AANDC:
  eventCount: 0
  stepCounts:
    0: 1
  stepFeatures:
    0: 1
HLT_mb_excl_1trk5_pt1_hi_FgapAC5_L1DPHI-2eTAU1_VjTE200:
  eventCount: 0
  stepCounts:
    0: 1
  stepFeatures:
    0: 1
HLT_mb_excl_1trk5_pt1_hi_FgapAC5_L1DPHI-2eTAU1_VjTE200_GAP_AANDC:
  eventCount: 0
  stepCounts:
    0: 1
  stepFeatures:
    0: 1
HLT_mb_excl_1trk5_pt1_hi_FgapAC5_L1TRT_VjTE20:
  eventCount: 0
HLT_mb_excl_1trk5_pt1_hi_FgapAC5_L1VZDC_A_VZDC_C_VjTE200:
  eventCount: 0
  stepCounts:
    0: 1
  stepFeatures:
    0: 1
HLT_mb_excl_1trk5_pt1_hi_FgapAC5_L1ZDC_XOR_VjTE200:
  eventCount: 0
HLT_mb_excl_1trk5_pt1_hi_FgapAC5_L1eEM1_TRT_VZDC_A_VZDC_C_VjTE100:
  eventCount: 0
HLT_mb_excl_1trk5_pt1_hi_FgapAC5_L1eEM1_TRT_VjTE100:
  eventCount: 0
HLT_mb_excl_1trk5_pt1_hi_FgapAC5_L1eEM1_TRT_VjTE200:
  eventCount: 0
HLT_mb_excl_1trk5_pt1_hi_FgapAC5_L1eEM1_TRT_VjTE200_GAP_AANDC:
  eventCount: 0
HLT_mb_excl_1trk5_pt1_hi_FgapAC5_L1eEM1_TRT_ZDC_XOR4_VjTE100:
  eventCount: 0
HLT_mb_excl_1trk5_pt1_hi_FgapAC5_L1eEM1_VZDC_A_VZDC_C_VjTE100:
  eventCount: 0
HLT_mb_excl_1trk5_pt1_hi_FgapAC5_L1eEM1_ZDC_XOR4_VjTE100:
  eventCount: 0
HLT_mb_excl_1trk5_pt1_hi_FgapAC5_L1eEM1_jTE4_VjTE200:
  eventCount: 0
  stepCounts:
    0: 1
  stepFeatures:
    0: 1
HLT_mb_excl_1trk5_pt1_hi_FgapAC5_L1eEM2_VZDC_A_VZDC_C_VjTE100:
  eventCount: 0
HLT_mb_excl_1trk5_pt1_hi_FgapAC5_L1eEM2_ZDC_XOR4_VjTE100:
  eventCount: 0
HLT_mb_excl_1trk5_pt1_hi_FgapAC5_L1eTAU1:
  eventCount: 0
  stepCounts:
    0: 7
  stepFeatures:
    0: 7
HLT_mb_excl_1trk5_pt1_hi_FgapAC5_L1eTAU1_TRT_VZDC_A_VZDC_C_VjTE100:
  eventCount: 0
HLT_mb_excl_1trk5_pt1_hi_FgapAC5_L1eTAU1_TRT_VjTE100:
  eventCount: 0
HLT_mb_excl_1trk5_pt1_hi_FgapAC5_L1eTAU1_TRT_VjTE200:
  eventCount: 0
HLT_mb_excl_1trk5_pt1_hi_FgapAC5_L1eTAU1_TRT_VjTE200_GAP_AANDC:
  eventCount: 0
HLT_mb_excl_1trk5_pt1_hi_FgapAC5_L1eTAU1_TRT_ZDC_XOR4_VjTE100:
  eventCount: 0
HLT_mb_excl_1trk5_pt1_hi_FgapAC5_L1eTAU1_jTE4_VjTE200:
  eventCount: 0
  stepCounts:
    0: 1
  stepFeatures:
    0: 1
HLT_mb_excl_1trk5_pt1_hi_FgapAC5_L1jTAU1:
  eventCount: 0
  stepCounts:
    0: 7
  stepFeatures:
    0: 7
HLT_mb_excl_1trk5_pt1_hi_FgapAC5_L1jTAU1_TRT_VjTE100:
  eventCount: 0
HLT_mb_excl_1trk5_pt1_hi_FgapAC5_L1jTAU1_TRT_VjTE100_GAP_AANDC:
  eventCount: 0
HLT_mb_excl_1trk5_pt2_hi_FgapAC5_L1eEM1_TRT_VZDC_A_VZDC_C_VjTE100:
  eventCount: 0
HLT_mb_excl_1trk5_pt2_hi_FgapAC5_L1eEM1_TRT_ZDC_XOR4_VjTE100:
  eventCount: 0
HLT_mb_excl_1trk5_pt2_hi_FgapAC5_L1eEM1_VZDC_A_VZDC_C_VjTE100:
  eventCount: 0
HLT_mb_excl_1trk5_pt2_hi_FgapAC5_L1eEM1_ZDC_XOR4_VjTE100:
  eventCount: 0
HLT_mb_excl_1trk5_pt2_hi_FgapAC5_L1eEM2_VZDC_A_VZDC_C_VjTE100:
  eventCount: 0
HLT_mb_excl_1trk5_pt2_hi_FgapAC5_L1eEM2_ZDC_XOR4_VjTE100:
  eventCount: 0
HLT_mb_excl_1trk5_pt2_hi_FgapAC5_L1eTAU1_TRT_VZDC_A_VZDC_C_VjTE100:
  eventCount: 0
HLT_mb_excl_1trk5_pt2_hi_FgapAC5_L1eTAU1_TRT_ZDC_XOR4_VjTE100:
  eventCount: 0
HLT_mb_mbts_L1MBTS_2_2:
  eventCount: 0
HLT_mb_mbts_L1MBTS_3_3:
  eventCount: 0
HLT_mb_mbts_L1MBTS_4_4:
  eventCount: 0
HLT_mb_pixsptrk_nototpix20_q2_L1RD0_FILLED:
  eventCount: 0
HLT_mb_pixsptrk_nototpix20_q2_L1TRT_ZDC_A_C_VjTE10:
  eventCount: 0
HLT_mb_pixsptrk_nototpix20_q2_L1TRT_ZDC_XOR_VjTE10:
  eventCount: 0
HLT_mb_pixsptrk_nototpix20_q2_L1TRT_ZDC_XOR_VjTE10_UNPAIRED_NONISO:
  eventCount: 0
HLT_mb_pixsptrk_nototpix20_q2_L1VjTE10:
  eventCount: 0
HLT_mb_pixsptrk_nototpix30_q2_L1TRT_ZDC_A_C_VjTE10:
  eventCount: 0
HLT_mb_pixsptrk_nototpix30_q2_L1TRT_ZDC_XOR_VjTE10:
  eventCount: 0
HLT_mb_pixsptrk_nototpix30_q2_L1TRT_ZDC_XOR_VjTE10_UNPAIRED_NONISO:
  eventCount: 0
HLT_mb_sp400_trk25_hmt_hi_FgapA5_L11ZDC_NZDC_jTE3_VjTE200:
  eventCount: 0
HLT_mb_sp400_trk25_hmt_hi_FgapA5_L1MBTS_1_1ZDC_NZDC_jTE3_VjTE200:
  eventCount: 0
HLT_mb_sp400_trk25_hmt_hi_FgapA5_L1MBTS_1_1ZDC_NZDC_jTE3_VjTE200_GAP_A:
  eventCount: 0
HLT_mb_sp400_trk25_hmt_hi_FgapA5_L1MBTS_1_1ZDC_NZDC_jTE5_VjTE200_GAP_A:
  eventCount: 0
HLT_mb_sp400_trk25_hmt_hi_FgapA5_L1MBTS_1_VZDC_A_ZDC_C_jTE3_VjTE200:
  eventCount: 0
HLT_mb_sp400_trk25_hmt_hi_FgapA5_L1MBTS_1_VZDC_A_ZDC_C_jTE3_VjTE200_GAP_A:
  eventCount: 0
HLT_mb_sp400_trk25_hmt_hi_FgapA5_L1MBTS_1_VZDC_A_ZDC_C_jTE5_VjTE200_GAP_A:
  eventCount: 0
HLT_mb_sp400_trk25_hmt_hi_FgapA5_L1VZDC_A_ZDC_C_gTE3_VjTE200:
  eventCount: 0
HLT_mb_sp400_trk25_hmt_hi_FgapA5_L1VZDC_A_ZDC_C_jTE3_VjTE200:
  eventCount: 0
HLT_mb_sp400_trk25_hmt_hi_FgapC5_L11ZDC_NZDC_jTE3_VjTE200:
  eventCount: 0
HLT_mb_sp400_trk25_hmt_hi_FgapC5_L1MBTS_1_1ZDC_NZDC_jTE3_VjTE200:
  eventCount: 0
HLT_mb_sp400_trk25_hmt_hi_FgapC5_L1MBTS_1_1ZDC_NZDC_jTE3_VjTE200_GAP_C:
  eventCount: 0
HLT_mb_sp400_trk25_hmt_hi_FgapC5_L1MBTS_1_1ZDC_NZDC_jTE5_VjTE200_GAP_C:
  eventCount: 0
HLT_mb_sp400_trk25_hmt_hi_FgapC5_L1MBTS_1_ZDC_A_VZDC_C_jTE3_VjTE200:
  eventCount: 0
HLT_mb_sp400_trk25_hmt_hi_FgapC5_L1MBTS_1_ZDC_A_VZDC_C_jTE3_VjTE200_GAP_C:
  eventCount: 0
HLT_mb_sp400_trk25_hmt_hi_FgapC5_L1MBTS_1_ZDC_A_VZDC_C_jTE5_VjTE200_GAP_C:
  eventCount: 0
HLT_mb_sp400_trk25_hmt_hi_FgapC5_L1ZDC_A_VZDC_C_gTE3_VjTE200:
  eventCount: 0
HLT_mb_sp400_trk25_hmt_hi_FgapC5_L1ZDC_A_VZDC_C_jTE3_VjTE200:
  eventCount: 0
HLT_mb_sp50_trk15_hmt_L1MBTS_1_1ZDC_NZDC_VjTE200:
  eventCount: 0
HLT_mb_sp50_trk15_hmt_L1MBTS_1_VZDC_A_ZDC_C_VjTE200:
  eventCount: 0
HLT_mb_sp50_trk15_hmt_L1MBTS_1_ZDC_A_VZDC_C_VjTE200:
  eventCount: 0
HLT_mb_sp50_trk15_hmt_L1MBTS_1_ZDC_OR_VjTE200_UNPAIRED_ISO:
  eventCount: 0
HLT_mb_sp50_trk15_hmt_hi_FgapA5_L1MBTS_1_1ZDC_NZDC_VjTE200:
  eventCount: 0
HLT_mb_sp50_trk15_hmt_hi_FgapA5_L1MBTS_1_VZDC_A_ZDC_C_VjTE200:
  eventCount: 0
HLT_mb_sp50_trk15_hmt_hi_FgapA5_L1MBTS_2_1ZDC_NZDC_VjTE200:
  eventCount: 0
HLT_mb_sp50_trk15_hmt_hi_FgapA5_L1MBTS_2_1ZDC_NZDC_VjTE200_GAP_A:
  eventCount: 0
HLT_mb_sp50_trk15_hmt_hi_FgapA5_L1MBTS_2_VZDC_A_ZDC_C_VjTE200:
  eventCount: 0
HLT_mb_sp50_trk15_hmt_hi_FgapA5_L1MBTS_2_VZDC_A_ZDC_C_VjTE200_GAP_A:
  eventCount: 0
HLT_mb_sp50_trk15_hmt_hi_FgapC5_L1MBTS_1_1ZDC_NZDC_VjTE200:
  eventCount: 0
HLT_mb_sp50_trk15_hmt_hi_FgapC5_L1MBTS_1_ZDC_A_VZDC_C_VjTE200:
  eventCount: 0
HLT_mb_sp50_trk15_hmt_hi_FgapC5_L1MBTS_2_1ZDC_NZDC_VjTE200:
  eventCount: 0
HLT_mb_sp50_trk15_hmt_hi_FgapC5_L1MBTS_2_1ZDC_NZDC_VjTE200_GAP_C:
  eventCount: 0
HLT_mb_sp50_trk15_hmt_hi_FgapC5_L1MBTS_2_ZDC_A_VZDC_C_VjTE200:
  eventCount: 0
HLT_mb_sp50_trk15_hmt_hi_FgapC5_L1MBTS_2_ZDC_A_VZDC_C_VjTE200_GAP_C:
  eventCount: 0
HLT_mb_sp700_trk35_hmt_hi_FgapA5_L11ZDC_NZDC_jTE5_VjTE200:
  eventCount: 0
HLT_mb_sp700_trk35_hmt_hi_FgapA5_L1MBTS_1_1ZDC_NZDC_jTE5_VjTE200:
  eventCount: 0
HLT_mb_sp700_trk35_hmt_hi_FgapA5_L1MBTS_1_1ZDC_NZDC_jTE5_VjTE200_GAP_A:
  eventCount: 0
HLT_mb_sp700_trk35_hmt_hi_FgapA5_L1MBTS_1_VZDC_A_ZDC_C_jTE5_VjTE200:
  eventCount: 0
HLT_mb_sp700_trk35_hmt_hi_FgapA5_L1MBTS_1_VZDC_A_ZDC_C_jTE5_VjTE200_GAP_A:
  eventCount: 0
HLT_mb_sp700_trk35_hmt_hi_FgapA5_L1VZDC_A_ZDC_C_gTE5_VjTE200:
  eventCount: 0
HLT_mb_sp700_trk35_hmt_hi_FgapA5_L1VZDC_A_ZDC_C_jTE5_VjTE200:
  eventCount: 0
HLT_mb_sp700_trk35_hmt_hi_FgapC5_L11ZDC_NZDC_jTE5_VjTE200:
  eventCount: 0
HLT_mb_sp700_trk35_hmt_hi_FgapC5_L1MBTS_1_1ZDC_NZDC_jTE5_VjTE200:
  eventCount: 0
HLT_mb_sp700_trk35_hmt_hi_FgapC5_L1MBTS_1_1ZDC_NZDC_jTE5_VjTE200_GAP_C:
  eventCount: 0
HLT_mb_sp700_trk35_hmt_hi_FgapC5_L1MBTS_1_ZDC_A_VZDC_C_jTE5_VjTE200:
  eventCount: 0
HLT_mb_sp700_trk35_hmt_hi_FgapC5_L1MBTS_1_ZDC_A_VZDC_C_jTE5_VjTE200_GAP_C:
  eventCount: 0
HLT_mb_sp700_trk35_hmt_hi_FgapC5_L1ZDC_A_VZDC_C_gTE5_VjTE200:
  eventCount: 0
HLT_mb_sp700_trk35_hmt_hi_FgapC5_L1ZDC_A_VZDC_C_jTE5_VjTE200:
  eventCount: 0
HLT_mb_sp_nototpix100_L1RD0_FILLED:
  eventCount: 20
  stepCounts:
    0: 20
  stepFeatures:
    0: 20
HLT_mb_sp_nototpix100_L1ZDC_A_C_VjTE10:
  eventCount: 0
HLT_mb_sp_nototpix100_L1ZDC_XOR_VjTE10:
  eventCount: 0
HLT_mb_sp_nototpix100_L1ZDC_XOR_VjTE10_UNPAIRED_NONISO:
  eventCount: 0
HLT_mb_sp_nototpix200_L1RD0_FILLED:
  eventCount: 20
  stepCounts:
    0: 20
  stepFeatures:
    0: 20
HLT_mb_sp_nototpix20_L1RD0_FILLED:
  eventCount: 20
  stepCounts:
    0: 20
  stepFeatures:
    0: 20
HLT_mb_sp_nototpix20_q2_L1RD0_FILLED:
  eventCount: 0
HLT_mb_sp_nototpix20_q2_L1VjTE10:
  eventCount: 0
HLT_mb_sp_nototpix30_L1RD0_FILLED:
  eventCount: 20
  stepCounts:
    0: 20
  stepFeatures:
    0: 20
HLT_mb_sp_nototpix30_q2_L1RD0_FILLED:
  eventCount: 0
HLT_mb_sp_nototpix30_q2_L1TRT_ZDC_A_C_VjTE10:
  eventCount: 0
HLT_mb_sp_nototpix30_q2_L1TRT_ZDC_XOR_VjTE10:
  eventCount: 0
HLT_mb_sp_nototpix30_q2_L1TRT_ZDC_XOR_VjTE10_UNPAIRED_NONISO:
  eventCount: 0
HLT_mb_sp_nototpix500_L1RD0_FILLED:
  eventCount: 20
  stepCounts:
    0: 20
  stepFeatures:
    0: 20
HLT_mb_sp_nototpix50_L1RD0_FILLED:
  eventCount: 20
  stepCounts:
    0: 20
  stepFeatures:
    0: 20
HLT_mb_sp_nototpix50_q2_L1RD0_FILLED:
  eventCount: 0
HLT_mb_sp_nototpix50_q2_L1ZDC_A_C_VjTE10:
  eventCount: 0
HLT_mb_sp_nototpix50_q2_L1ZDC_XOR_VjTE10:
  eventCount: 0
HLT_mb_sp_nototpix50_q2_L1ZDC_XOR_VjTE10_UNPAIRED_NONISO:
  eventCount: 0
HLT_mb_sp_nototpix70_L1RD0_FILLED:
  eventCount: 20
  stepCounts:
    0: 20
  stepFeatures:
    0: 20
HLT_mb_sp_nototpix70_q2_L1RD0_FILLED:
  eventCount: 0
HLT_mb_sp_pix100_L1RD0_FILLED:
  eventCount: 20
  stepCounts:
    0: 20
  stepFeatures:
    0: 20
HLT_mb_sp_pix200_L1RD0_FILLED:
  eventCount: 20
  stepCounts:
    0: 20
  stepFeatures:
    0: 20
HLT_mb_sp_pix20_L1RD0_FILLED:
  eventCount: 20
  stepCounts:
    0: 20
  stepFeatures:
    0: 20
HLT_mb_sp_pix50_L1RD0_FILLED:
  eventCount: 20
  stepCounts:
    0: 20
  stepFeatures:
    0: 20
HLT_mb_sp_vpix15_hi_FgapAC5_L12eEM1_VjTE200:
  eventCount: 0
  stepCounts:
    0: 1
  stepFeatures:
    0: 1
HLT_mb_sp_vpix15_hi_FgapAC5_L12eEM1_VjTE200_GAP_AANDC:
  eventCount: 0
  stepCounts:
    0: 1
  stepFeatures:
    0: 1
HLT_mb_sp_vpix15_hi_FgapAC5_L12eEM2_VjTE200:
  eventCount: 0
  stepCounts:
    0: 1
  stepFeatures:
    0: 1
HLT_mb_sp_vpix30_hi_FgapAC5_2g0_etcut_25dphiCC_L12eTAU1_VjTE200:
  eventCount: 0
  stepCounts:
    0: 3
    1: 3
    2: 3
    3: 1
  stepFeatures:
    0: 21
    1: 21
    2: 29
    3: 1
HLT_mb_sp_vpix30_hi_FgapAC5_2g0_etcut_L12eTAU1_VjTE200:
  eventCount: 0
  stepCounts:
    0: 3
    1: 3
    2: 3
    3: 1
  stepFeatures:
    0: 21
    1: 21
    2: 29
    3: 1
HLT_mb_sp_vpix30_hi_FgapAC5_L12eEM1_VjTE200:
  eventCount: 0
  stepCounts:
    0: 1
  stepFeatures:
    0: 1
HLT_mb_sp_vpix30_hi_FgapAC5_L12eEM1_VjTE200_GAP_AANDC:
  eventCount: 0
  stepCounts:
    0: 1
  stepFeatures:
    0: 1
HLT_mb_sp_vpix30_hi_FgapAC5_L12eEM2_VjTE200:
  eventCount: 0
  stepCounts:
    0: 1
  stepFeatures:
    0: 1
HLT_mb_sp_vpix30_hi_FgapAC5_L12eTAU1_VjTE200:
  eventCount: 0
  stepCounts:
    0: 1
  stepFeatures:
    0: 1
HLT_mb_sp_vpix30_hi_FgapAC5_L1DPHI-2eEM1:
  eventCount: 0
  stepCounts:
    0: 7
  stepFeatures:
    0: 7
HLT_mb_sp_vpix30_hi_FgapAC5_L1DPHI-2eEM1_VjTE200:
  eventCount: 0
  stepCounts:
    0: 1
  stepFeatures:
    0: 1
HLT_mb_sp_vpix30_hi_FgapAC5_L1DPHI-2eTAU1:
  eventCount: 0
  stepCounts:
    0: 7
  stepFeatures:
    0: 7
HLT_mb_sp_vpix30_hi_FgapAC5_L1DPHI-2eTAU1_VjTE200:
  eventCount: 0
  stepCounts:
    0: 1
  stepFeatures:
    0: 1
HLT_mb_sp_vpix30_hi_FgapAC5_L1DPHI-2jTAU1:
  eventCount: 0
  stepCounts:
    0: 6
  stepFeatures:
    0: 6
HLT_mb_sp_vpix30_hi_FgapAC5_L1eEM1_jTE4_VjTE200:
  eventCount: 0
  stepCounts:
    0: 1
  stepFeatures:
    0: 1
HLT_mb_sp_vpix30_hi_FgapAC5_L1eTAU1:
  eventCount: 0
  stepCounts:
    0: 7
  stepFeatures:
    0: 7
HLT_mb_sp_vpix30_hi_FgapAC5_L1eTAU1_jTE4_VjTE200:
  eventCount: 0
  stepCounts:
    0: 1
  stepFeatures:
    0: 1
HLT_mb_sp_vpix30_hi_FgapAC5_L1jTAU1:
  eventCount: 0
  stepCounts:
    0: 7
  stepFeatures:
    0: 7
HLT_mb_sp_vpix60_hi_FgapAC5_2g0_etcut_25dphiCC_L12eEM1_VjTE200:
  eventCount: 0
  stepCounts:
    0: 3
    1: 3
    2: 3
    3: 1
  stepFeatures:
    0: 18
    1: 18
    2: 32
    3: 1
HLT_mb_sp_vpix60_hi_FgapAC5_2g0_etcut_25dphiCC_L12eEM1_VjTE200_GAP_AANDC:
  eventCount: 0
  stepCounts:
    0: 2
    1: 2
    2: 2
    3: 1
  stepFeatures:
    0: 10
    1: 10
    2: 20
    3: 1
HLT_mb_sp_vpix60_hi_FgapAC5_2g0_etcut_25dphiCC_L12eTAU1_VjTE200:
  eventCount: 0
  stepCounts:
    0: 3
    1: 3
    2: 3
    3: 1
  stepFeatures:
    0: 21
    1: 21
    2: 29
    3: 1
HLT_mb_sp_vpix60_hi_FgapAC5_2g0_etcut_25dphiCC_L12eTAU1_VjTE200_GAP_AANDC:
  eventCount: 0
  stepCounts:
    0: 2
    1: 2
    2: 2
    3: 1
  stepFeatures:
    0: 14
    1: 14
    2: 19
    3: 1
HLT_mb_sp_vpix60_hi_FgapAC5_2g0_etcut_25dphiCC_L1DPHI-2eEM1_VjTE200:
  eventCount: 0
  stepCounts:
    0: 3
    1: 3
    2: 3
    3: 1
  stepFeatures:
    0: 18
    1: 18
    2: 32
    3: 1
HLT_mb_sp_vpix60_hi_FgapAC5_2g0_etcut_25dphiCC_L1DPHI-2eEM1_VjTE200_GAP_AANDC:
  eventCount: 0
  stepCounts:
    0: 2
    1: 2
    2: 2
    3: 1
  stepFeatures:
    0: 10
    1: 10
    2: 20
    3: 1
HLT_mb_sp_vpix60_hi_FgapAC5_2g0_etcut_25dphiCC_L1DPHI-2eTAU1_VjTE200:
  eventCount: 0
  stepCounts:
    0: 3
    1: 3
    2: 3
    3: 1
  stepFeatures:
    0: 21
    1: 21
    2: 29
    3: 1
HLT_mb_sp_vpix60_hi_FgapAC5_2g0_etcut_25dphiCC_L1DPHI-2eTAU1_VjTE200_GAP_AANDC:
  eventCount: 0
  stepCounts:
    0: 2
    1: 2
    2: 2
    3: 1
  stepFeatures:
    0: 14
    1: 14
    2: 19
    3: 1
HLT_mb_sp_vpix60_hi_FgapAC5_2g0_etcut_L12eEM1_VjTE200:
  eventCount: 0
  stepCounts:
    0: 3
    1: 3
    2: 3
    3: 1
  stepFeatures:
    0: 18
    1: 18
    2: 32
    3: 1
HLT_mb_sp_vpix60_hi_FgapAC5_2g0_etcut_L12eEM1_VjTE200_GAP_AANDC:
  eventCount: 0
  stepCounts:
    0: 2
    1: 2
    2: 2
    3: 1
  stepFeatures:
    0: 10
    1: 10
    2: 20
    3: 1
HLT_mb_sp_vpix60_hi_FgapAC5_2g0_etcut_L12eTAU1_VjTE200:
  eventCount: 0
  stepCounts:
    0: 3
    1: 3
    2: 3
    3: 1
  stepFeatures:
    0: 21
    1: 21
    2: 29
    3: 1
HLT_mb_sp_vpix60_hi_FgapAC5_2g0_etcut_L12eTAU1_VjTE200_GAP_AANDC:
  eventCount: 0
  stepCounts:
    0: 2
    1: 2
    2: 2
    3: 1
  stepFeatures:
    0: 14
    1: 14
    2: 19
    3: 1
HLT_mb_sp_vpix60_hi_FgapAC5_2g0_etcut_L1DPHI-2eEM1_VjTE200:
  eventCount: 0
  stepCounts:
    0: 3
    1: 3
    2: 3
    3: 1
  stepFeatures:
    0: 18
    1: 18
    2: 32
    3: 1
HLT_mb_sp_vpix60_hi_FgapAC5_2g0_etcut_L1DPHI-2eEM1_VjTE200_GAP_AANDC:
  eventCount: 0
  stepCounts:
    0: 2
    1: 2
    2: 2
    3: 1
  stepFeatures:
    0: 10
    1: 10
    2: 20
    3: 1
HLT_mb_sp_vpix60_hi_FgapAC5_2g0_etcut_L1DPHI-2eTAU1_VjTE200:
  eventCount: 0
  stepCounts:
    0: 3
    1: 3
    2: 3
    3: 1
  stepFeatures:
    0: 21
    1: 21
    2: 29
    3: 1
HLT_mb_sp_vpix60_hi_FgapAC5_2g0_etcut_L1DPHI-2eTAU1_VjTE200_GAP_AANDC:
  eventCount: 0
  stepCounts:
    0: 2
    1: 2
    2: 2
    3: 1
  stepFeatures:
    0: 14
    1: 14
    2: 19
    3: 1
HLT_mb_sp_vpix60_hi_FgapAC5_L12eTAU1_VjTE200:
  eventCount: 0
  stepCounts:
    0: 1
  stepFeatures:
    0: 1
HLT_mb_sp_vpix60_hi_FgapAC5_L12eTAU1_VjTE200_EMPTY:
  eventCount: 0
HLT_mb_sp_vpix60_hi_FgapAC5_L12eTAU1_VjTE200_UNPAIRED_ISO:
  eventCount: 0
HLT_mb_sp_vpix60_hi_FgapAC5_L12eTAU1_VjTE200_UNPAIRED_NONISO:
  eventCount: 0
HLT_mb_sp_vpix60_hi_FgapAC5_L1DPHI-2eEM1_VjTE200:
  eventCount: 0
  stepCounts:
    0: 1
  stepFeatures:
    0: 1
HLT_mb_sp_vpix60_hi_FgapAC5_L1DPHI-2eEM1_VjTE200_EMPTY:
  eventCount: 0
HLT_mb_sp_vpix60_hi_FgapAC5_L1DPHI-2eEM1_VjTE200_GAP_AANDC:
  eventCount: 0
  stepCounts:
    0: 1
  stepFeatures:
    0: 1
HLT_mb_sp_vpix60_hi_FgapAC5_L1DPHI-2eTAU1_VjTE200:
  eventCount: 0
  stepCounts:
    0: 1
  stepFeatures:
    0: 1
HLT_mb_sp_vpix60_hi_FgapAC5_L1DPHI-2eTAU1_VjTE200_EMPTY:
  eventCount: 0
HLT_mb_sp_vpix60_hi_FgapAC5_L1DPHI-2eTAU1_VjTE200_GAP_AANDC:
  eventCount: 0
  stepCounts:
    0: 1
  stepFeatures:
    0: 1
HLT_mb_sp_vpix60_hi_FgapAC5_L1eEM1_jTE4_VjTE200:
  eventCount: 0
  stepCounts:
    0: 1
  stepFeatures:
    0: 1
HLT_mb_sp_vpix60_hi_FgapAC5_L1eEM2_jTE4_VjTE200:
  eventCount: 0
  stepCounts:
    0: 1
  stepFeatures:
    0: 1
HLT_mb_sp_vpix60_hi_FgapAC5_L1eEM5_VjTE200:
  eventCount: 0
  stepCounts:
    0: 1
  stepFeatures:
    0: 1
HLT_mb_sp_vpix60_hi_FgapAC5_L1eEM9_VjTE200_EMPTY:
  eventCount: 0
HLT_mb_sp_vpix60_hi_FgapAC5_L1eTAU1_TRT_VjTE200_EMPTY:
  eventCount: 0
HLT_mb_sp_vpix60_hi_FgapAC5_L1eTAU1_TRT_VjTE200_UNPAIRED_ISO:
  eventCount: 0
HLT_mb_sp_vpix60_hi_FgapAC5_L1eTAU1_TRT_VjTE200_UNPAIRED_NONISO:
  eventCount: 0
HLT_mb_sp_vpix60_hi_FgapAC5_L1eTAU1_jTE4_VjTE200:
  eventCount: 0
  stepCounts:
    0: 1
  stepFeatures:
    0: 1
HLT_mb_sptrk_L11ZDC_A_1ZDC_C_VjTE200:
  eventCount: 0
HLT_mb_sptrk_L1MBTS_1_1_VjTE50:
  eventCount: 0
HLT_mb_sptrk_L1TRT_1ZDC_NZDC_VjTE200:
  eventCount: 0
HLT_mb_sptrk_L1TRT_VjTE200:
  eventCount: 0
HLT_mb_sptrk_L1TRT_ZDC_XOR_VjTE200:
  eventCount: 0
HLT_mb_sptrk_L1ZDC_1XOR5_VjTE200:
  eventCount: 0
HLT_mb_sptrk_L1ZDC_A_C_VjTE50:
  eventCount: 0
HLT_mb_sptrk_L1ZDC_A_C_VjTE50_OVERLAY:
  eventCount: 0
HLT_mb_sptrk_L1ZDC_OR_VjTE200_UNPAIRED_ISO:
  eventCount: 0
HLT_mb_sptrk_L1ZDC_XOR_VjTE200:
  eventCount: 0
HLT_mb_sptrk_L1eEM1_TRT_ZDC_XOR_VjTE200:
  eventCount: 0
HLT_mb_sptrk_L1eTAU1_TRT_ZDC_XOR_VjTE200:
  eventCount: 0
HLT_mb_sptrk_L1jTAU1_TRT_ZDC_XOR_VjTE200:
  eventCount: 0
HLT_mb_sptrk_hi_FgapA5_L1VjTE200:
  eventCount: 0
HLT_mb_sptrk_hi_FgapAC5_L12eEM1_VjTE200:
  eventCount: 1
  stepCounts:
    0: 1
    1: 1
    2: 1
    3: 1
  stepFeatures:
    0: 1
    1: 1
    2: 1
    3: 1
HLT_mb_sptrk_hi_FgapAC5_L12eTAU1_VjTE200:
  eventCount: 1
  stepCounts:
    0: 1
    1: 1
    2: 1
    3: 1
  stepFeatures:
    0: 1
    1: 1
    2: 1
    3: 1
HLT_mb_sptrk_hi_FgapAC5_L1eTAU1_TRT_VjTE200:
  eventCount: 0
HLT_mb_sptrk_hi_FgapC5_L1VjTE200:
  eventCount: 0
HLT_mb_sptrk_nototpix20_q2_L1VjTE10:
  eventCount: 0
HLT_mb_sptrk_pc_L1ZDC_A_C_VjTE50:
  eventCount: 0
HLT_mb_sptrk_pt1_L1TRT_ZDC_XOR_jTE5_VjTE200:
  eventCount: 0
HLT_mb_sptrk_pt1_L1jTAU1_TRT_ZDC_XOR_VjTE200:
  eventCount: 0
HLT_mu10_L1MU5VF:
  eventCount: 7
  stepCounts:
    0: 7
    1: 7
    2: 7
    3: 7
  stepFeatures:
    0: 9
    1: 8
    2: 8
    3: 8
HLT_mu10_L1MU8F:
  eventCount: 7
  stepCounts:
    0: 7
    1: 7
    2: 7
    3: 7
  stepFeatures:
    0: 9
    1: 8
    2: 8
    3: 8
HLT_mu10_mu10_idperf_50invmAB130_L12MU5VF:
  eventCount: 0
  stepCounts:
    0: 2
    1: 2
    2: 1
  stepFeatures:
    0: 8
    1: 7
    2: 6
    3: 4
HLT_mu14_mu14_idtp_idZmumu_L12MU8F:
  eventCount: 0
  stepCounts:
    0: 1
  stepFeatures:
    0: 5
    1: 2
HLT_mu3_L1MU3V_VjTE50:
  eventCount: 0
HLT_mu3_hi_FgapAC5_L1MU3V_VjTE50:
  eventCount: 0
HLT_mu4_L1MU3V:
  eventCount: 8
  stepCounts:
    0: 10
    1: 9
    2: 9
    3: 8
  stepFeatures:
    0: 13
    1: 12
    2: 12
    3: 11
HLT_mu4_L1MU3V_VjTE200:
  eventCount: 1
  stepCounts:
    0: 1
    1: 1
    2: 1
    3: 1
  stepFeatures:
    0: 2
    1: 2
    2: 2
    3: 2
HLT_mu4_L1MU3V_VjTE50:
  eventCount: 0
HLT_mu4_hi_FgapAC5_L1MU3V_VjTE50:
  eventCount: 0
HLT_mu4_idperf_L1MU3V:
  eventCount: 9
  stepCounts:
    0: 10
    1: 10
    2: 9
    3: 9
  stepFeatures:
    0: 13
    1: 13
    2: 12
    3: 12
HLT_mu4_j40_ion_L1MU3V:
  eventCount: 8
  stepCounts:
    0: 10
    1: 9
    2: 9
    3: 8
    4: 8
  stepFeatures:
    0: 13
    1: 12
    2: 12
    3: 11
    4: 23
HLT_mu4_j40_ion_dRAB05_L1MU3V:
  eventCount: 4
  stepCounts:
    0: 10
    1: 9
    2: 9
    3: 8
    4: 4
  stepFeatures:
    0: 13
    1: 12
    2: 12
    3: 11
    4: 23
HLT_mu4_j50_ion_L1MU3V:
  eventCount: 7
  stepCounts:
    0: 10
    1: 9
    2: 9
    3: 8
    4: 7
  stepFeatures:
    0: 13
    1: 12
    2: 12
    3: 11
    4: 17
HLT_mu4_j50_ion_dRAB05_L1MU3V:
  eventCount: 3
  stepCounts:
    0: 10
    1: 9
    2: 9
    3: 8
    4: 3
  stepFeatures:
    0: 13
    1: 12
    2: 12
    3: 11
    4: 17
HLT_mu4_j60_ion_L1MU3V:
  eventCount: 7
  stepCounts:
    0: 10
    1: 9
    2: 9
    3: 8
    4: 7
  stepFeatures:
    0: 13
    1: 12
    2: 12
    3: 11
    4: 15
HLT_mu4_j60_ion_dRAB05_L1MU3V:
  eventCount: 3
  stepCounts:
    0: 10
    1: 9
    2: 9
    3: 8
    4: 3
  stepFeatures:
    0: 13
    1: 12
    2: 12
    3: 11
    4: 15
HLT_mu4_j60_ion_dRAB05_L1MU3V_jJ40:
  eventCount: 3
  stepCounts:
    0: 10
    1: 9
    2: 9
    3: 8
    4: 3
  stepFeatures:
    0: 13
    1: 12
    2: 12
    3: 11
    4: 15
HLT_mu4_mu4_idperf_1invmAB5_L12MU3V:
  eventCount: 0
  stepCounts:
    0: 3
    1: 3
    2: 3
  stepFeatures:
    0: 12
    1: 12
    2: 12
    3: 12
HLT_mu4_mu4_probe_L1MU3V:
  eventCount: 3
  stepCounts:
    0: 10
    1: 9
    2: 9
    3: 8
    4: 3
    5: 3
    6: 3
    7: 3
  stepFeatures:
    0: 13
    1: 12
    2: 12
    3: 11
    4: 11
    5: 6
    6: 6
    7: 6
HLT_mu4_mu4noL1_L1MU3V:
  eventCount: 3
  stepCounts:
    0: 10
    1: 9
    2: 9
    3: 8
    4: 4
    5: 3
  stepFeatures:
    0: 13
    1: 12
    2: 12
    3: 11
    4: 10
    5: 8
HLT_mu4_mu4noL1_L1MU3V_VjTE50:
  eventCount: 0
HLT_mu4_mu6_probe_L1MU3V:
  eventCount: 3
  stepCounts:
    0: 10
    1: 9
    2: 9
    3: 8
    4: 3
    5: 3
    6: 3
    7: 3
  stepFeatures:
    0: 13
    1: 12
    2: 12
    3: 11
    4: 9
    5: 5
    6: 5
    7: 5
HLT_mu4noL1_L1ZDC_HELT15_jTE4000:
  eventCount: 0
HLT_mu4noL1_L1ZDC_HELT20_jTE4000:
  eventCount: 0
HLT_mu4noL1_L1ZDC_HELT25_jTE4000:
  eventCount: 0
HLT_mu4noL1_hi_uccTh2_L1jTE9000:
  eventCount: 0
HLT_mu4noL1_hi_uccTh3_L1jTE10000:
  eventCount: 0
HLT_mu6_L1MU3V:
  eventCount: 7
  stepCounts:
    0: 7
    1: 7
    2: 7
    3: 7
  stepFeatures:
    0: 9
    1: 9
    2: 9
    3: 9
HLT_mu6_L1MU3V_VjTE50:
  eventCount: 0
HLT_mu6_L1MU5VF:
  eventCount: 7
  stepCounts:
    0: 7
    1: 7
    2: 7
    3: 7
  stepFeatures:
    0: 9
    1: 9
    2: 9
    3: 9
HLT_mu6_idperf_L1MU5VF:
  eventCount: 7
  stepCounts:
    0: 7
    1: 7
    2: 7
    3: 7
  stepFeatures:
    0: 9
    1: 9
    2: 9
    3: 9
HLT_mu6_j30_ion_L1MU3V:
  eventCount: 7
  stepCounts:
    0: 7
    1: 7
    2: 7
    3: 7
    4: 7
  stepFeatures:
    0: 9
    1: 9
    2: 9
    3: 9
    4: 23
HLT_mu6_j30_ion_dRAB05_L1MU5VF:
  eventCount: 4
  stepCounts:
    0: 7
    1: 7
    2: 7
    3: 7
    4: 4
  stepFeatures:
    0: 9
    1: 9
    2: 9
    3: 9
    4: 23
HLT_mu6_j40_ion_L1MU3V:
  eventCount: 7
  stepCounts:
    0: 7
    1: 7
    2: 7
    3: 7
    4: 7
  stepFeatures:
    0: 9
    1: 9
    2: 9
    3: 9
    4: 20
HLT_mu6_j40_ion_dRAB05_L1MU5VF:
  eventCount: 4
  stepCounts:
    0: 7
    1: 7
    2: 7
    3: 7
    4: 4
  stepFeatures:
    0: 9
    1: 9
    2: 9
    3: 9
    4: 20
HLT_mu6_j50_ion_L1MU3V:
  eventCount: 6
  stepCounts:
    0: 7
    1: 7
    2: 7
    3: 7
    4: 6
  stepFeatures:
    0: 9
    1: 9
    2: 9
    3: 9
    4: 15
HLT_mu6_j50_ion_dRAB05_L1MU5VF:
  eventCount: 3
  stepCounts:
    0: 7
    1: 7
    2: 7
    3: 7
    4: 3
  stepFeatures:
    0: 9
    1: 9
    2: 9
    3: 9
    4: 15
HLT_mu6_mu4_probe_L1MU3V:
  eventCount: 3
  stepCounts:
    0: 7
    1: 7
    2: 7
    3: 7
    4: 3
    5: 3
    6: 3
    7: 3
  stepFeatures:
    0: 9
    1: 9
    2: 9
    3: 9
    4: 10
    5: 6
    6: 6
    7: 6
HLT_mu6_mu6_probe_L1MU3V:
  eventCount: 2
  stepCounts:
    0: 7
    1: 7
    2: 7
    3: 7
    4: 2
    5: 2
    6: 2
    7: 2
  stepFeatures:
    0: 9
    1: 9
    2: 9
    3: 9
    4: 9
    5: 4
    6: 4
    7: 4
HLT_mu8_L1MU5VF:
  eventCount: 7
  stepCounts:
    0: 7
    1: 7
    2: 7
    3: 7
  stepFeatures:
    0: 9
    1: 9
    2: 9
    3: 9
HLT_mu8_L1MU5VF_VjTE50:
  eventCount: 0
HLT_mu8_idperf_L1MU5VF:
  eventCount: 7
  stepCounts:
    0: 7
    1: 7
    2: 7
    3: 7
  stepFeatures:
    0: 9
    1: 9
    2: 9
    3: 9
HLT_mu8_mu4_probe_L1MU5VF:
  eventCount: 3
  stepCounts:
    0: 7
    1: 7
    2: 7
    3: 7
    4: 3
    5: 3
    6: 3
    7: 3
  stepFeatures:
    0: 9
    1: 9
    2: 9
    3: 9
    4: 10
    5: 6
    6: 6
    7: 6
HLT_mu8_mu6_probe_L1MU5VF:
  eventCount: 2
  stepCounts:
    0: 7
    1: 7
    2: 7
    3: 7
    4: 2
    5: 2
    6: 2
    7: 2
  stepFeatures:
    0: 9
    1: 9
    2: 9
    3: 9
    4: 9
    5: 4
    6: 4
    7: 4
HLT_noalg_CostMonDS_L1All:
  eventCount: 20
  stepCounts:
    0: 20
  stepFeatures:
    0: 20
HLT_noalg_L12MU3V:
  eventCount: 3
HLT_noalg_L1MBTS_2_UNPAIRED_ISO:
  eventCount: 0
HLT_noalg_L1MU3V:
  eventCount: 10
HLT_noalg_L1MU5VF:
  eventCount: 8
HLT_noalg_L1RD0_EMPTY:
  eventCount: 0
HLT_noalg_L1RD0_FILLED:
  eventCount: 20
HLT_noalg_L1TRT_EMPTY:
  eventCount: 0
HLT_noalg_L1TRT_FILLED:
  eventCount: 0
HLT_noalg_L1TRT_VjTE50:
  eventCount: 0
HLT_noalg_L1ZDC_A:
  eventCount: 0
HLT_noalg_L1ZDC_A_C:
  eventCount: 0
HLT_noalg_L1ZDC_C:
  eventCount: 0
HLT_noalg_L1ZDC_HELT15_jTE4000:
  eventCount: 0
HLT_noalg_L1ZDC_HELT20_jTE4000:
  eventCount: 0
HLT_noalg_L1ZDC_HELT25_jTE4000:
  eventCount: 0
HLT_noalg_L1ZDC_HELT35_jTE4000:
  eventCount: 0
HLT_noalg_L1ZDC_HELT50_jTE4000:
  eventCount: 0
HLT_noalg_L1eEM12:
  eventCount: 19
HLT_noalg_L1eEM15:
  eventCount: 17
HLT_noalg_L1eEM18:
  eventCount: 17
HLT_noalg_L1eEM1_VjTE200:
  eventCount: 3
HLT_noalg_L1eEM2_VjTE200:
  eventCount: 3
HLT_noalg_L1eEM5:
  eventCount: 20
HLT_noalg_L1eEM9:
  eventCount: 19
HLT_noalg_L1eTAU1:
  eventCount: 20
HLT_noalg_L1gJ20p0ETA25:
  eventCount: 20
HLT_noalg_L1gJ400p0ETA25:
  eventCount: 0
HLT_noalg_L1gLJ80p0ETA25:
  eventCount: 15
HLT_noalg_L1gXEJWOJ100:
  eventCount: 7
HLT_noalg_L1jJ40:
  eventCount: 20
HLT_noalg_L1jJ50:
  eventCount: 19
HLT_noalg_L1jJ60:
  eventCount: 16
HLT_noalg_L1jTAU1:
  eventCount: 20
HLT_noalg_L1jTE10:
  eventCount: 20
HLT_noalg_L1jTE100:
  eventCount: 20
HLT_noalg_L1jTE10000:
  eventCount: 0
HLT_noalg_L1jTE1500:
  eventCount: 0
HLT_noalg_L1jTE1500_OVERLAY:
  eventCount: 0
HLT_noalg_L1jTE20:
  eventCount: 20
HLT_noalg_L1jTE200:
  eventCount: 17
HLT_noalg_L1jTE3:
  eventCount: 20
HLT_noalg_L1jTE4:
  eventCount: 20
HLT_noalg_L1jTE4000_OVERLAY:
  eventCount: 0
HLT_noalg_L1jTE5:
  eventCount: 20
HLT_noalg_L1jTE50:
  eventCount: 20
HLT_noalg_L1jTE50_OVERLAY:
  eventCount: 20
HLT_noalg_L1jTE50_VjTE600:
  eventCount: 20
HLT_noalg_L1jTE5_VjTE200:
  eventCount: 3
HLT_noalg_L1jTE600:
  eventCount: 0
HLT_noalg_L1jTE6500:
  eventCount: 0
HLT_noalg_L1jTE8300:
  eventCount: 0
HLT_noalg_L1jTE9000:
  eventCount: 0
HLT_noalg_eb_L12eEM18:
  eventCount: 15
HLT_noalg_eb_L12eEM1_VjTE200:
  eventCount: 3
HLT_noalg_eb_L12eTAU1_VjTE200:
  eventCount: 3
HLT_noalg_eb_L1DPHI-2eTAU1_VjTE200:
  eventCount: 3
HLT_noalg_eb_L1MBTS_1_1:
  eventCount: 0
HLT_noalg_eb_L1MU3V:
  eventCount: 10
HLT_noalg_eb_L1MU3V_VjTE50:
  eventCount: 0
HLT_noalg_eb_L1RD1_FILLED:
  eventCount: 20
HLT_noalg_eb_L1TRT_ZDC_A_VjTE50:
  eventCount: 0
HLT_noalg_eb_L1TRT_ZDC_C_VjTE50:
  eventCount: 0
HLT_noalg_eb_L1VZDC_A_VZDC_C_VjTE50:
  eventCount: 0
HLT_noalg_eb_L1VZDC_A_VZDC_C_jTE5_VjTE200:
  eventCount: 3
HLT_noalg_eb_L1VjTE200:
  eventCount: 3
HLT_noalg_eb_L1ZDC_A_C_VjTE50:
  eventCount: 0
HLT_noalg_eb_L1ZDC_A_VjTE200:
  eventCount: 0
HLT_noalg_eb_L1ZDC_C_VjTE200:
  eventCount: 0
HLT_noalg_eb_L1ZDC_XOR_VjTE10:
  eventCount: 0
HLT_noalg_eb_L1ZDC_XOR_jTE5_VjTE200:
  eventCount: 0
HLT_noalg_eb_L1eEM15:
  eventCount: 17
HLT_noalg_eb_L1eEM18:
  eventCount: 17
HLT_noalg_eb_L1eEM1_TRT_VjTE50:
  eventCount: 0
HLT_noalg_eb_L1eEM1_jTE4_VjTE200:
  eventCount: 3
HLT_noalg_eb_L1eEM26:
  eventCount: 14
HLT_noalg_eb_L1eEM2_jTE4_VjTE200:
  eventCount: 3
HLT_noalg_eb_L1eTAU1_TRT_VjTE50:
  eventCount: 0
HLT_noalg_eb_L1eTAU1_jTE4_VjTE200:
  eventCount: 3
HLT_noalg_eb_L1jTE50:
  eventCount: 20
HLT_noalg_eb_L1jTE50_VjTE200:
  eventCount: 3
HLT_noalg_eb_L1jTE5_VjTE200:
  eventCount: 3
HLT_noalg_eb_L1jTE6500:
  eventCount: 0
HLT_noalg_mb_L1MBTS_1:
  eventCount: 0
HLT_noalg_mb_L1MBTS_1_1:
  eventCount: 0
HLT_noalg_mb_L1MBTS_2:
  eventCount: 0
HLT_noalg_mb_L1RD0_UNPAIRED_ISO:
  eventCount: 0
HLT_noalg_zb_L1ZeroBias:
  eventCount: 0
