BTagging decision on this jet is 0
Nominal SF for this jet: 1.39453
SF for this jet with systematic variation FT_EFF_Eigen_B_0__1down is 1.39453
SF for this jet with systematic variation FT_EFF_Eigen_B_0__1up is 1.39453
SF for this jet with systematic variation FT_EFF_Eigen_B_1__1down is 1.39453
SF for this jet with systematic variation FT_EFF_Eigen_B_1__1up is 1.39453
SF for this jet with systematic variation FT_EFF_Eigen_B_2__1down is 1.39453
SF for this jet with systematic variation FT_EFF_Eigen_B_2__1up is 1.39453
SF for this jet with systematic variation FT_EFF_Eigen_B_3__1down is 1.39453
SF for this jet with systematic variation FT_EFF_Eigen_B_3__1up is 1.39453
SF for this jet with systematic variation FT_EFF_Eigen_B_4__1down is 1.39453
SF for this jet with systematic variation FT_EFF_Eigen_B_4__1up is 1.39453
SF for this jet with systematic variation FT_EFF_Eigen_C_0__1down is 1.39453
SF for this jet with systematic variation FT_EFF_Eigen_C_0__1up is 1.39453
SF for this jet with systematic variation FT_EFF_Eigen_C_1__1down is 1.39453
SF for this jet with systematic variation FT_EFF_Eigen_C_1__1up is 1.39453
SF for this jet with systematic variation FT_EFF_Eigen_C_2__1down is 1.39453
SF for this jet with systematic variation FT_EFF_Eigen_C_2__1up is 1.39453
SF for this jet with systematic variation FT_EFF_Eigen_C_3__1down is 1.39453
SF for this jet with systematic variation FT_EFF_Eigen_C_3__1up is 1.39453
SF for this jet with systematic variation FT_EFF_Eigen_Light_0__1down is 1.83094
SF for this jet with systematic variation FT_EFF_Eigen_Light_0__1up is 0.958134
SF for this jet with systematic variation FT_EFF_Eigen_Light_1__1down is 1.42924
SF for this jet with systematic variation FT_EFF_Eigen_Light_1__1up is 1.35983
SF for this jet with systematic variation FT_EFF_Eigen_Light_2__1down is 1.38778
SF for this jet with systematic variation FT_EFF_Eigen_Light_2__1up is 1.40129
SF for this jet with systematic variation FT_EFF_Eigen_Light_3__1down is 1.39123
SF for this jet with systematic variation FT_EFF_Eigen_Light_3__1up is 1.39784
SF for this jet with systematic variation FT_EFF_Eigen_Light_4__1down is 1.39453
SF for this jet with systematic variation FT_EFF_Eigen_Light_4__1up is 1.39453
SF for this jet with systematic variation FT_EFF_extrapolation__1down is 1.39453
SF for this jet with systematic variation FT_EFF_extrapolation__1up is 1.39453
SF for this jet with systematic variation FT_EFF_extrapolation_from_charm__1down is 1.39453
SF for this jet with systematic variation FT_EFF_extrapolation_from_charm__1up is 1.39453
BTagging decision on this jet is 0
Nominal SF for this jet: 1.3795
SF for this jet with systematic variation FT_EFF_Eigen_B_0__1down is 1.3795
SF for this jet with systematic variation FT_EFF_Eigen_B_0__1up is 1.3795
SF for this jet with systematic variation FT_EFF_Eigen_B_1__1down is 1.3795
SF for this jet with systematic variation FT_EFF_Eigen_B_1__1up is 1.3795
SF for this jet with systematic variation FT_EFF_Eigen_B_2__1down is 1.3795
SF for this jet with systematic variation FT_EFF_Eigen_B_2__1up is 1.3795
SF for this jet with systematic variation FT_EFF_Eigen_B_3__1down is 1.3795
SF for this jet with systematic variation FT_EFF_Eigen_B_3__1up is 1.3795
SF for this jet with systematic variation FT_EFF_Eigen_B_4__1down is 1.3795
SF for this jet with systematic variation FT_EFF_Eigen_B_4__1up is 1.3795
SF for this jet with systematic variation FT_EFF_Eigen_C_0__1down is 1.3795
SF for this jet with systematic variation FT_EFF_Eigen_C_0__1up is 1.3795
SF for this jet with systematic variation FT_EFF_Eigen_C_1__1down is 1.3795
SF for this jet with systematic variation FT_EFF_Eigen_C_1__1up is 1.3795
SF for this jet with systematic variation FT_EFF_Eigen_C_2__1down is 1.3795
SF for this jet with systematic variation FT_EFF_Eigen_C_2__1up is 1.3795
SF for this jet with systematic variation FT_EFF_Eigen_C_3__1down is 1.3795
SF for this jet with systematic variation FT_EFF_Eigen_C_3__1up is 1.3795
SF for this jet with systematic variation FT_EFF_Eigen_Light_0__1down is 1.808
SF for this jet with systematic variation FT_EFF_Eigen_Light_0__1up is 0.951
SF for this jet with systematic variation FT_EFF_Eigen_Light_1__1down is 1.39913
SF for this jet with systematic variation FT_EFF_Eigen_Light_1__1up is 1.35987
SF for this jet with systematic variation FT_EFF_Eigen_Light_2__1down is 1.37034
SF for this jet with systematic variation FT_EFF_Eigen_Light_2__1up is 1.38865
SF for this jet with systematic variation FT_EFF_Eigen_Light_3__1down is 1.37625
SF for this jet with systematic variation FT_EFF_Eigen_Light_3__1up is 1.38274
SF for this jet with systematic variation FT_EFF_Eigen_Light_4__1down is 1.3795
SF for this jet with systematic variation FT_EFF_Eigen_Light_4__1up is 1.3795
SF for this jet with systematic variation FT_EFF_extrapolation__1down is 1.3795
SF for this jet with systematic variation FT_EFF_extrapolation__1up is 1.3795
SF for this jet with systematic variation FT_EFF_extrapolation_from_charm__1down is 1.3795
SF for this jet with systematic variation FT_EFF_extrapolation_from_charm__1up is 1.3795
BTagging decision on this jet is 1
Nominal SF for this jet: 0.994659
SF for this jet with systematic variation FT_EFF_Eigen_B_0__1down is 0.994175
SF for this jet with systematic variation FT_EFF_Eigen_B_0__1up is 0.995143
SF for this jet with systematic variation FT_EFF_Eigen_B_1__1down is 1.00538
SF for this jet with systematic variation FT_EFF_Eigen_B_1__1up is 0.98394
SF for this jet with systematic variation FT_EFF_Eigen_B_2__1down is 0.985978
SF for this jet with systematic variation FT_EFF_Eigen_B_2__1up is 1.00334
SF for this jet with systematic variation FT_EFF_Eigen_B_3__1down is 0.991257
SF for this jet with systematic variation FT_EFF_Eigen_B_3__1up is 0.998062
SF for this jet with systematic variation FT_EFF_Eigen_B_4__1down is 0.995426
SF for this jet with systematic variation FT_EFF_Eigen_B_4__1up is 0.993893
SF for this jet with systematic variation FT_EFF_Eigen_C_0__1down is 0.994659
SF for this jet with systematic variation FT_EFF_Eigen_C_0__1up is 0.994659
SF for this jet with systematic variation FT_EFF_Eigen_C_1__1down is 0.994659
SF for this jet with systematic variation FT_EFF_Eigen_C_1__1up is 0.994659
SF for this jet with systematic variation FT_EFF_Eigen_C_2__1down is 0.994659
SF for this jet with systematic variation FT_EFF_Eigen_C_2__1up is 0.994659
SF for this jet with systematic variation FT_EFF_Eigen_C_3__1down is 0.994659
SF for this jet with systematic variation FT_EFF_Eigen_C_3__1up is 0.994659
SF for this jet with systematic variation FT_EFF_Eigen_Light_0__1down is 0.994659
SF for this jet with systematic variation FT_EFF_Eigen_Light_0__1up is 0.994659
SF for this jet with systematic variation FT_EFF_Eigen_Light_1__1down is 0.994659
SF for this jet with systematic variation FT_EFF_Eigen_Light_1__1up is 0.994659
SF for this jet with systematic variation FT_EFF_Eigen_Light_2__1down is 0.994659
SF for this jet with systematic variation FT_EFF_Eigen_Light_2__1up is 0.994659
SF for this jet with systematic variation FT_EFF_Eigen_Light_3__1down is 0.994659
SF for this jet with systematic variation FT_EFF_Eigen_Light_3__1up is 0.994659
SF for this jet with systematic variation FT_EFF_Eigen_Light_4__1down is 0.994659
SF for this jet with systematic variation FT_EFF_Eigen_Light_4__1up is 0.994659
SF for this jet with systematic variation FT_EFF_extrapolation__1down is 0.994659
SF for this jet with systematic variation FT_EFF_extrapolation__1up is 0.994659
SF for this jet with systematic variation FT_EFF_extrapolation_from_charm__1down is 0.994659
SF for this jet with systematic variation FT_EFF_extrapolation_from_charm__1up is 0.994659
BTagging decision on this jet is 0
Nominal SF for this jet: 1.36594
SF for this jet with systematic variation FT_EFF_Eigen_B_0__1down is 1.36594
SF for this jet with systematic variation FT_EFF_Eigen_B_0__1up is 1.36594
SF for this jet with systematic variation FT_EFF_Eigen_B_1__1down is 1.36594
SF for this jet with systematic variation FT_EFF_Eigen_B_1__1up is 1.36594
SF for this jet with systematic variation FT_EFF_Eigen_B_2__1down is 1.36594
SF for this jet with systematic variation FT_EFF_Eigen_B_2__1up is 1.36594
SF for this jet with systematic variation FT_EFF_Eigen_B_3__1down is 1.36594
SF for this jet with systematic variation FT_EFF_Eigen_B_3__1up is 1.36594
SF for this jet with systematic variation FT_EFF_Eigen_B_4__1down is 1.36594
SF for this jet with systematic variation FT_EFF_Eigen_B_4__1up is 1.36594
SF for this jet with systematic variation FT_EFF_Eigen_C_0__1down is 1.36594
SF for this jet with systematic variation FT_EFF_Eigen_C_0__1up is 1.36594
SF for this jet with systematic variation FT_EFF_Eigen_C_1__1down is 1.36594
SF for this jet with systematic variation FT_EFF_Eigen_C_1__1up is 1.36594
SF for this jet with systematic variation FT_EFF_Eigen_C_2__1down is 1.36594
SF for this jet with systematic variation FT_EFF_Eigen_C_2__1up is 1.36594
SF for this jet with systematic variation FT_EFF_Eigen_C_3__1down is 1.36594
SF for this jet with systematic variation FT_EFF_Eigen_C_3__1up is 1.36594
SF for this jet with systematic variation FT_EFF_Eigen_Light_0__1down is 1.7877
SF for this jet with systematic variation FT_EFF_Eigen_Light_0__1up is 0.94417
SF for this jet with systematic variation FT_EFF_Eigen_Light_1__1down is 1.37393
SF for this jet with systematic variation FT_EFF_Eigen_Light_1__1up is 1.35795
SF for this jet with systematic variation FT_EFF_Eigen_Light_2__1down is 1.35562
SF for this jet with systematic variation FT_EFF_Eigen_Light_2__1up is 1.37625
SF for this jet with systematic variation FT_EFF_Eigen_Light_3__1down is 1.36326
SF for this jet with systematic variation FT_EFF_Eigen_Light_3__1up is 1.36861
SF for this jet with systematic variation FT_EFF_Eigen_Light_4__1down is 1.36594
SF for this jet with systematic variation FT_EFF_Eigen_Light_4__1up is 1.36594
SF for this jet with systematic variation FT_EFF_extrapolation__1down is 1.36594
SF for this jet with systematic variation FT_EFF_extrapolation__1up is 1.36594
SF for this jet with systematic variation FT_EFF_extrapolation_from_charm__1down is 1.36594
SF for this jet with systematic variation FT_EFF_extrapolation_from_charm__1up is 1.36594
BTagging decision on this jet is 0
Nominal SF for this jet: 1.3338
SF for this jet with systematic variation FT_EFF_Eigen_B_0__1down is 1.3338
SF for this jet with systematic variation FT_EFF_Eigen_B_0__1up is 1.3338
SF for this jet with systematic variation FT_EFF_Eigen_B_1__1down is 1.3338
SF for this jet with systematic variation FT_EFF_Eigen_B_1__1up is 1.3338
SF for this jet with systematic variation FT_EFF_Eigen_B_2__1down is 1.3338
SF for this jet with systematic variation FT_EFF_Eigen_B_2__1up is 1.3338
SF for this jet with systematic variation FT_EFF_Eigen_B_3__1down is 1.3338
SF for this jet with systematic variation FT_EFF_Eigen_B_3__1up is 1.3338
SF for this jet with systematic variation FT_EFF_Eigen_B_4__1down is 1.3338
SF for this jet with systematic variation FT_EFF_Eigen_B_4__1up is 1.3338
SF for this jet with systematic variation FT_EFF_Eigen_C_0__1down is 1.3338
SF for this jet with systematic variation FT_EFF_Eigen_C_0__1up is 1.3338
SF for this jet with systematic variation FT_EFF_Eigen_C_1__1down is 1.3338
SF for this jet with systematic variation FT_EFF_Eigen_C_1__1up is 1.3338
SF for this jet with systematic variation FT_EFF_Eigen_C_2__1down is 1.3338
SF for this jet with systematic variation FT_EFF_Eigen_C_2__1up is 1.3338
SF for this jet with systematic variation FT_EFF_Eigen_C_3__1down is 1.3338
SF for this jet with systematic variation FT_EFF_Eigen_C_3__1up is 1.3338
SF for this jet with systematic variation FT_EFF_Eigen_Light_0__1down is 1.73883
SF for this jet with systematic variation FT_EFF_Eigen_Light_0__1up is 0.928771
SF for this jet with systematic variation FT_EFF_Eigen_Light_1__1down is 1.30431
SF for this jet with systematic variation FT_EFF_Eigen_Light_1__1up is 1.36329
SF for this jet with systematic variation FT_EFF_Eigen_Light_2__1down is 1.32752
SF for this jet with systematic variation FT_EFF_Eigen_Light_2__1up is 1.34008
SF for this jet with systematic variation FT_EFF_Eigen_Light_3__1down is 1.33637
SF for this jet with systematic variation FT_EFF_Eigen_Light_3__1up is 1.33123
SF for this jet with systematic variation FT_EFF_Eigen_Light_4__1down is 1.3338
SF for this jet with systematic variation FT_EFF_Eigen_Light_4__1up is 1.3338
SF for this jet with systematic variation FT_EFF_extrapolation__1down is 1.3338
SF for this jet with systematic variation FT_EFF_extrapolation__1up is 1.3338
SF for this jet with systematic variation FT_EFF_extrapolation_from_charm__1down is 1.3338
SF for this jet with systematic variation FT_EFF_extrapolation_from_charm__1up is 1.3338
BTagging decision on this jet is 0
Nominal SF for this jet: 1.20799
SF for this jet with systematic variation FT_EFF_Eigen_B_0__1down is 1.20799
SF for this jet with systematic variation FT_EFF_Eigen_B_0__1up is 1.20799
SF for this jet with systematic variation FT_EFF_Eigen_B_1__1down is 1.20799
SF for this jet with systematic variation FT_EFF_Eigen_B_1__1up is 1.20799
SF for this jet with systematic variation FT_EFF_Eigen_B_2__1down is 1.20799
SF for this jet with systematic variation FT_EFF_Eigen_B_2__1up is 1.20799
SF for this jet with systematic variation FT_EFF_Eigen_B_3__1down is 1.20799
SF for this jet with systematic variation FT_EFF_Eigen_B_3__1up is 1.20799
SF for this jet with systematic variation FT_EFF_Eigen_B_4__1down is 1.20799
SF for this jet with systematic variation FT_EFF_Eigen_B_4__1up is 1.20799
SF for this jet with systematic variation FT_EFF_Eigen_C_0__1down is 1.20799
SF for this jet with systematic variation FT_EFF_Eigen_C_0__1up is 1.20799
SF for this jet with systematic variation FT_EFF_Eigen_C_1__1down is 1.20799
SF for this jet with systematic variation FT_EFF_Eigen_C_1__1up is 1.20799
SF for this jet with systematic variation FT_EFF_Eigen_C_2__1down is 1.20799
SF for this jet with systematic variation FT_EFF_Eigen_C_2__1up is 1.20799
SF for this jet with systematic variation FT_EFF_Eigen_C_3__1down is 1.20799
SF for this jet with systematic variation FT_EFF_Eigen_C_3__1up is 1.20799
SF for this jet with systematic variation FT_EFF_Eigen_Light_0__1down is 1.57549
SF for this jet with systematic variation FT_EFF_Eigen_Light_0__1up is 0.840496
SF for this jet with systematic variation FT_EFF_Eigen_Light_1__1down is 1.16646
SF for this jet with systematic variation FT_EFF_Eigen_Light_1__1up is 1.24953
SF for this jet with systematic variation FT_EFF_Eigen_Light_2__1down is 1.21725
SF for this jet with systematic variation FT_EFF_Eigen_Light_2__1up is 1.19874
SF for this jet with systematic variation FT_EFF_Eigen_Light_3__1down is 1.2076
SF for this jet with systematic variation FT_EFF_Eigen_Light_3__1up is 1.20839
SF for this jet with systematic variation FT_EFF_Eigen_Light_4__1down is 1.20799
SF for this jet with systematic variation FT_EFF_Eigen_Light_4__1up is 1.20799
SF for this jet with systematic variation FT_EFF_extrapolation__1down is 1.20799
SF for this jet with systematic variation FT_EFF_extrapolation__1up is 1.20799
SF for this jet with systematic variation FT_EFF_extrapolation_from_charm__1down is 1.20799
SF for this jet with systematic variation FT_EFF_extrapolation_from_charm__1up is 1.20799
BTagging decision on this jet is 0
Nominal SF for this jet: 1.13404
SF for this jet with systematic variation FT_EFF_Eigen_B_0__1down is 1.13404
SF for this jet with systematic variation FT_EFF_Eigen_B_0__1up is 1.13404
SF for this jet with systematic variation FT_EFF_Eigen_B_1__1down is 1.13404
SF for this jet with systematic variation FT_EFF_Eigen_B_1__1up is 1.13404
SF for this jet with systematic variation FT_EFF_Eigen_B_2__1down is 1.13404
SF for this jet with systematic variation FT_EFF_Eigen_B_2__1up is 1.13404
SF for this jet with systematic variation FT_EFF_Eigen_B_3__1down is 1.13404
SF for this jet with systematic variation FT_EFF_Eigen_B_3__1up is 1.13404
SF for this jet with systematic variation FT_EFF_Eigen_B_4__1down is 1.13404
SF for this jet with systematic variation FT_EFF_Eigen_B_4__1up is 1.13404
SF for this jet with systematic variation FT_EFF_Eigen_C_0__1down is 1.13404
SF for this jet with systematic variation FT_EFF_Eigen_C_0__1up is 1.13404
SF for this jet with systematic variation FT_EFF_Eigen_C_1__1down is 1.13404
SF for this jet with systematic variation FT_EFF_Eigen_C_1__1up is 1.13404
SF for this jet with systematic variation FT_EFF_Eigen_C_2__1down is 1.13404
SF for this jet with systematic variation FT_EFF_Eigen_C_2__1up is 1.13404
SF for this jet with systematic variation FT_EFF_Eigen_C_3__1down is 1.13404
SF for this jet with systematic variation FT_EFF_Eigen_C_3__1up is 1.13404
SF for this jet with systematic variation FT_EFF_Eigen_Light_0__1down is 1.47967
SF for this jet with systematic variation FT_EFF_Eigen_Light_0__1up is 0.788417
SF for this jet with systematic variation FT_EFF_Eigen_Light_1__1down is 1.094
SF for this jet with systematic variation FT_EFF_Eigen_Light_1__1up is 1.17409
SF for this jet with systematic variation FT_EFF_Eigen_Light_2__1down is 1.1501
SF for this jet with systematic variation FT_EFF_Eigen_Light_2__1up is 1.11799
SF for this jet with systematic variation FT_EFF_Eigen_Light_3__1down is 1.12713
SF for this jet with systematic variation FT_EFF_Eigen_Light_3__1up is 1.14096
SF for this jet with systematic variation FT_EFF_Eigen_Light_4__1down is 1.13404
SF for this jet with systematic variation FT_EFF_Eigen_Light_4__1up is 1.13404
SF for this jet with systematic variation FT_EFF_extrapolation__1down is 1.13404
SF for this jet with systematic variation FT_EFF_extrapolation__1up is 1.13404
SF for this jet with systematic variation FT_EFF_extrapolation_from_charm__1down is 1.13404
SF for this jet with systematic variation FT_EFF_extrapolation_from_charm__1up is 1.13404
BTagging decision on this jet is 0
Nominal SF for this jet: 1.02118
SF for this jet with systematic variation FT_EFF_Eigen_B_0__1down is 0.818053
SF for this jet with systematic variation FT_EFF_Eigen_B_0__1up is 1.22431
SF for this jet with systematic variation FT_EFF_Eigen_B_1__1down is 1.01957
SF for this jet with systematic variation FT_EFF_Eigen_B_1__1up is 1.02279
SF for this jet with systematic variation FT_EFF_Eigen_B_2__1down is 1.03819
SF for this jet with systematic variation FT_EFF_Eigen_B_2__1up is 1.00417
SF for this jet with systematic variation FT_EFF_Eigen_B_3__1down is 1.01657
SF for this jet with systematic variation FT_EFF_Eigen_B_3__1up is 1.02579
SF for this jet with systematic variation FT_EFF_Eigen_B_4__1down is 1.02311
SF for this jet with systematic variation FT_EFF_Eigen_B_4__1up is 1.01925
SF for this jet with systematic variation FT_EFF_Eigen_C_0__1down is 1.02118
SF for this jet with systematic variation FT_EFF_Eigen_C_0__1up is 1.02118
SF for this jet with systematic variation FT_EFF_Eigen_C_1__1down is 1.02118
SF for this jet with systematic variation FT_EFF_Eigen_C_1__1up is 1.02118
SF for this jet with systematic variation FT_EFF_Eigen_C_2__1down is 1.02118
SF for this jet with systematic variation FT_EFF_Eigen_C_2__1up is 1.02118
SF for this jet with systematic variation FT_EFF_Eigen_C_3__1down is 1.02118
SF for this jet with systematic variation FT_EFF_Eigen_C_3__1up is 1.02118
SF for this jet with systematic variation FT_EFF_Eigen_Light_0__1down is 1.02118
SF for this jet with systematic variation FT_EFF_Eigen_Light_0__1up is 1.02118
SF for this jet with systematic variation FT_EFF_Eigen_Light_1__1down is 1.02118
SF for this jet with systematic variation FT_EFF_Eigen_Light_1__1up is 1.02118
SF for this jet with systematic variation FT_EFF_Eigen_Light_2__1down is 1.02118
SF for this jet with systematic variation FT_EFF_Eigen_Light_2__1up is 1.02118
SF for this jet with systematic variation FT_EFF_Eigen_Light_3__1down is 1.02118
SF for this jet with systematic variation FT_EFF_Eigen_Light_3__1up is 1.02118
SF for this jet with systematic variation FT_EFF_Eigen_Light_4__1down is 1.02118
SF for this jet with systematic variation FT_EFF_Eigen_Light_4__1up is 1.02118
SF for this jet with systematic variation FT_EFF_extrapolation__1down is 1.02118
SF for this jet with systematic variation FT_EFF_extrapolation__1up is 1.02118
SF for this jet with systematic variation FT_EFF_extrapolation_from_charm__1down is 1.02118
SF for this jet with systematic variation FT_EFF_extrapolation_from_charm__1up is 1.02118
BTagging decision on this jet is 0
Nominal SF for this jet: 0
SF for this jet with systematic variation FT_EFF_Eigen_B_0__1down is 0
SF for this jet with systematic variation FT_EFF_Eigen_B_0__1up is 0
SF for this jet with systematic variation FT_EFF_Eigen_B_1__1down is 0
SF for this jet with systematic variation FT_EFF_Eigen_B_1__1up is 0
SF for this jet with systematic variation FT_EFF_Eigen_B_2__1down is 0
SF for this jet with systematic variation FT_EFF_Eigen_B_2__1up is 0
SF for this jet with systematic variation FT_EFF_Eigen_B_3__1down is 0
SF for this jet with systematic variation FT_EFF_Eigen_B_3__1up is 0
SF for this jet with systematic variation FT_EFF_Eigen_B_4__1down is 0
SF for this jet with systematic variation FT_EFF_Eigen_B_4__1up is 0
SF for this jet with systematic variation FT_EFF_Eigen_C_0__1down is 0
SF for this jet with systematic variation FT_EFF_Eigen_C_0__1up is 0
SF for this jet with systematic variation FT_EFF_Eigen_C_1__1down is 0
SF for this jet with systematic variation FT_EFF_Eigen_C_1__1up is 0
SF for this jet with systematic variation FT_EFF_Eigen_C_2__1down is 0
SF for this jet with systematic variation FT_EFF_Eigen_C_2__1up is 0
SF for this jet with systematic variation FT_EFF_Eigen_C_3__1down is 0
SF for this jet with systematic variation FT_EFF_Eigen_C_3__1up is 0
SF for this jet with systematic variation FT_EFF_Eigen_Light_0__1down is 0
SF for this jet with systematic variation FT_EFF_Eigen_Light_0__1up is 0
SF for this jet with systematic variation FT_EFF_Eigen_Light_1__1down is 0
SF for this jet with systematic variation FT_EFF_Eigen_Light_1__1up is 0
SF for this jet with systematic variation FT_EFF_Eigen_Light_2__1down is 0
SF for this jet with systematic variation FT_EFF_Eigen_Light_2__1up is 0
SF for this jet with systematic variation FT_EFF_Eigen_Light_3__1down is 0
SF for this jet with systematic variation FT_EFF_Eigen_Light_3__1up is 0
SF for this jet with systematic variation FT_EFF_Eigen_Light_4__1down is 0
SF for this jet with systematic variation FT_EFF_Eigen_Light_4__1up is 0
SF for this jet with systematic variation FT_EFF_extrapolation__1down is 0
SF for this jet with systematic variation FT_EFF_extrapolation__1up is 0
SF for this jet with systematic variation FT_EFF_extrapolation_from_charm__1down is 0
SF for this jet with systematic variation FT_EFF_extrapolation_from_charm__1up is 0
